0.0878643441561704	0.05269419017613228
1.0036187283524134	0.5664331402829402
2.029101408204418	0.9382237600851127
3.4864416897201598	0.8672876748517545
4.177103461446249	0.5934436199018894


0.0878643441561704	0.05269419017613228	   0.0
0.12875673532907117	0.07563485469390215	0.0026238407508350913
0.16964912650197195	0.09857551921167201	0.006185780128897114
0.21054151767487272	0.12151618372944188	0.010685818134186066
0.2514339088477735	0.14445684824721175	0.01612395476670195
0.2923263000206743	0.1673975127649816	0.022500190026444766
0.33321869119357506	0.1903381772827515	0.029814523913414506
0.37411108236647583	0.21327884180052134	0.03806695642761119
0.4150034735393766	0.23621950631829122	0.04725748756903479
0.4558958647122774	0.259160170836061	0.05738611733768533
0.49678825588517816	0.2821008353538309	0.0684528457335628
0.5376806470580789	0.3050414998716008	0.08045767275666718
0.5785730382309797	0.32798216438937067	0.09340059840699852
0.6194654294038805	0.35092282890714055	0.1072816226845568
0.6603578205767813	0.37386349342491043	0.12210074558934195
0.701250211749682	0.3968041579426802	0.1378579671213541
0.7421426029225828	0.4197448224604502	0.15455328728059314
0.7830349940954836	0.44268548697821997	0.1721867060670591
0.8239273852683844	0.46562615149598985	0.19075822348075205
0.8648197764412852	0.48856681601375973	0.2102678395216719
0.9057121676141859	0.5115074805315296	0.2307155541898186
0.9466045587870867	0.5344481450492995	0.2521013674851923
0.9874969499599875	0.5573888095670694	0.274425279407793
1.0283893411328884	0.5754137712184735	0.2976264074714972
1.0692817323057893	0.5902393823751239	0.3214595798358346
1.1101741234786902	0.6050649935317743	0.34589900689096714
1.151066514651591	0.6198906046884248	0.3709446886368948
1.191958905824492	0.6347162158450753	0.3965966250736175
1.2328512969973928	0.6495418270017258	0.4228548162011353
1.2737436881702937	0.6643674381583763	0.4497192620194481
1.3146360793431946	0.6791930493150268	0.47718996252855594
1.3555284705160955	0.6940186604716772	0.5052669177284589
1.3964208616889964	0.7088442716283276	0.533950127619157
1.4373132528618973	0.7236698827849781	0.5632395922006501
1.4782056440347981	0.7384954939416286	0.5931353114729383
1.519098035207699	0.7533211050982791	0.6236372854360217
1.5599904263806	0.7681467162549296	0.6547455140898999
1.6008828175535008	0.7829723274115801	0.6864599974345733
1.6417752087264017	0.7977979385682306	0.7187807354700417
1.6826675998993026	0.812623549724881	0.7517077281963054
1.7235599910722035	0.8274491608815315	0.785240975613364
1.7644523822451044	0.8422747720381819	0.8193804777212179
1.8053447734180053	0.8571003831948324	0.8541262345198666
1.8462371645909061	0.8719259943514829	0.8894782460093105
1.887129555763807	0.8867516055081334	0.9254365121895494
1.928021946936708	0.9015772166647839	0.9620010330605835
1.9689143381096088	0.9164028278214343	0.9991718086224124
2.0098067292825097	0.9312284389780848	1.0369488388750365
2.0506991204554104	0.9371724907443048	1.0752362131364284
2.091591511628311	0.9351820522843043	1.1135187403303701
2.1324839028012117	0.9331916138243039	1.1517198737362
2.1733762939741124	0.9312011753643036	1.189839613353918
2.214268685147013	0.9292107369043032	1.2278779591835238
2.2551610763199137	0.9272202984443029	1.265834911225018
2.2960534674928144	0.9252298599843024	1.3037104694784
2.336945858665715	0.923239421524302	1.3415046339436705
2.3778382498386157	0.9212489830643017	1.3792174046208288
2.4187306410115164	0.9192585446043013	1.4168487815098751
2.459623032184417	0.917268106144301	1.4543987646108096
2.5005154233573177	0.9152776676843006	1.4918673539236322
2.5414078145302184	0.9132872292243002	1.5292545494483427
2.582300205703119	0.9112967907642998	1.5665603511849415
2.6231925968760197	0.9093063523042995	1.6037847591334282
2.6640849880489204	0.9073159138442991	1.6409277732938032
2.704977379221821	0.9053254753842988	1.6779893936660661
2.7458697703947217	0.9033350369242984	1.7149696202502172
2.7867621615676224	0.9013445984642979	1.7518684530462563
2.827654552740523	0.8993541600042976	1.7886858920541835
2.8685469439134237	0.8973637215442972	1.8254219372739988
2.9094393350863244	0.8953732830842969	1.862076588705702
2.950331726259225	0.8933828446242965	1.8986498463492936
2.9912241174321257	0.8913924061642962	1.935141710204773
3.0321165086050264	0.8894019677042957	1.9715521802721407
3.073008899777927	0.8874115292442953	2.0078812565513964
3.1139012909508277	0.885421090784295	2.0441289390425403
3.1547936821237283	0.8834306523242946	2.080295227745572
3.195686073296629	0.8814402138642943	2.116380122660492
3.2365784644695297	0.8794497754042938	2.1523836237872995
3.2774708556424303	0.8774593369442935	2.188305731125996
3.318363246815331	0.8754688984842931	2.22414644467658
3.3592556379882317	0.8734784600242927	2.2599057644390523
3.4001480291611323	0.8714880215642924	2.2955836904134124
3.441040420334033	0.869497583104292	2.331180222599661
3.4819328115069337	0.8675071446442917	2.366695360997797
3.5228252026798343	0.8528617877821721	2.4018988904139777
3.563717593852735	0.8366481522896545	2.4364429410939383
3.6046099850256357	0.820434516797137	2.4703239774490053
3.6455023761985363	0.8042208813046194	2.503541999479175
3.686394767371437	0.7880072458121019	2.5360970071844515
3.7272871585443377	0.7717936103195843	2.5679890005648325
3.7681795497172383	0.7555799748270667	2.599217979620319
3.809071940890139	0.7393663393345491	2.6297839443509106
3.8499643320630397	0.7231527038420316	2.6596868947566064
3.8908567232359403	0.706939068349514	2.6889268308374086
3.931749114408841	0.6907254328569964	2.7175037525933154
3.9726415055817417	0.6745117973644789	2.7454176600243274
4.013533896754643	0.6582981618719611	2.772668553130446
4.0544262879275434	0.6420845263794436	2.799256431911667
4.095318679100444	0.6258708908869259	2.8251812963679943
4.136211070273345	0.6096572553944084	2.850443146499427
4.1771034614462454	0.5934436199018909	2.8750419823059645
