<?xml version="1.0" encoding="utf-8"  standalone="no"?>
<!DOCTYPE svg PUBLIC "-//W3C//DTD SVG 1.1//EN"
 "http://www.w3.org/Graphics/SVG/1.1/DTD/svg11.dtd">
<svg 
 width="600" height="480"
 viewBox="0 0 600 480"
 xmlns="http://www.w3.org/2000/svg"
 xmlns:xlink="http://www.w3.org/1999/xlink"
>

<title>Gnuplot</title>
<desc>Produced by GNUPLOT 5.0 patchlevel 3 </desc>

<g id="gnuplot_canvas">

<rect x="0" y="0" width="600" height="480" fill="#ffffff"/>
<defs>

	<circle id='gpDot' r='0.5' stroke-width='0.5'/>
	<path id='gpPt0' stroke-width='0.222' stroke='currentColor' d='M-1,0 h2 M0,-1 v2'/>
	<path id='gpPt1' stroke-width='0.222' stroke='currentColor' d='M-1,-1 L1,1 M1,-1 L-1,1'/>
	<path id='gpPt2' stroke-width='0.222' stroke='currentColor' d='M-1,0 L1,0 M0,-1 L0,1 M-1,-1 L1,1 M-1,1 L1,-1'/>
	<rect id='gpPt3' stroke-width='0.222' stroke='currentColor' x='-1' y='-1' width='2' height='2'/>
	<rect id='gpPt4' stroke-width='0.222' stroke='currentColor' fill='currentColor' x='-1' y='-1' width='2' height='2'/>
	<circle id='gpPt5' stroke-width='0.222' stroke='currentColor' cx='0' cy='0' r='1'/>
	<use xlink:href='#gpPt5' id='gpPt6' fill='currentColor' stroke='none'/>
	<path id='gpPt7' stroke-width='0.222' stroke='currentColor' d='M0,-1.33 L-1.33,0.67 L1.33,0.67 z'/>
	<use xlink:href='#gpPt7' id='gpPt8' fill='currentColor' stroke='none'/>
	<use xlink:href='#gpPt7' id='gpPt9' stroke='currentColor' transform='rotate(180)'/>
	<use xlink:href='#gpPt9' id='gpPt10' fill='currentColor' stroke='none'/>
	<use xlink:href='#gpPt3' id='gpPt11' stroke='currentColor' transform='rotate(45)'/>
	<use xlink:href='#gpPt11' id='gpPt12' fill='currentColor' stroke='none'/>
	<path id='gpPt13' stroke-width='0.222' stroke='currentColor' d='M0,1.330 L1.265,0.411 L0.782,-1.067 L-0.782,-1.076 L-1.265,0.411 z'/>
	<use xlink:href='#gpPt13' id='gpPt14' fill='currentColor' stroke='none'/>
	<filter id='textbox' filterUnits='objectBoundingBox' x='0' y='0' height='1' width='1'>
	  <feFlood flood-color='#FFFFFF' flood-opacity='1' result='bgnd'/>
	  <feComposite in='SourceGraphic' in2='bgnd' operator='atop'/>
	</filter>
	<filter id='greybox' filterUnits='objectBoundingBox' x='0' y='0' height='1' width='1'>
	  <feFlood flood-color='lightgrey' flood-opacity='1' result='grey'/>
	  <feComposite in='SourceGraphic' in2='grey' operator='atop'/>
	</filter>
</defs>
<g fill="none" color="#FFFFFF" stroke="currentColor" stroke-width="1.00" stroke-linecap="butt" stroke-linejoin="miter">
</g>
<g fill="none" color="black" stroke="currentColor" stroke-width="1.00" stroke-linecap="butt" stroke-linejoin="miter">
	<path stroke='black'  d='M71.9,397.0 L80.9,397.0 M575.0,397.0 L566.0,397.0  '/>	<g transform="translate(63.6,401.5)" stroke="none" fill="black" font-family="Arial" font-size="12.00"  text-anchor="end">
		<text><tspan font-family="Arial" >-1</tspan></text>
	</g>
</g>
<g fill="none" color="black" stroke="currentColor" stroke-width="1.00" stroke-linecap="butt" stroke-linejoin="miter">
	<path stroke='black'  d='M71.9,333.5 L80.9,333.5 M575.0,333.5 L566.0,333.5  '/>	<g transform="translate(63.6,338.0)" stroke="none" fill="black" font-family="Arial" font-size="12.00"  text-anchor="end">
		<text><tspan font-family="Arial" >-0.5</tspan></text>
	</g>
</g>
<g fill="none" color="black" stroke="currentColor" stroke-width="1.00" stroke-linecap="butt" stroke-linejoin="miter">
	<path stroke='black'  d='M71.9,270.0 L80.9,270.0 M575.0,270.0 L566.0,270.0  '/>	<g transform="translate(63.6,274.5)" stroke="none" fill="black" font-family="Arial" font-size="12.00"  text-anchor="end">
		<text><tspan font-family="Arial" > 0</tspan></text>
	</g>
</g>
<g fill="none" color="black" stroke="currentColor" stroke-width="1.00" stroke-linecap="butt" stroke-linejoin="miter">
	<path stroke='black'  d='M71.9,206.5 L80.9,206.5 M575.0,206.5 L566.0,206.5  '/>	<g transform="translate(63.6,211.0)" stroke="none" fill="black" font-family="Arial" font-size="12.00"  text-anchor="end">
		<text><tspan font-family="Arial" > 0.5</tspan></text>
	</g>
</g>
<g fill="none" color="black" stroke="currentColor" stroke-width="1.00" stroke-linecap="butt" stroke-linejoin="miter">
	<path stroke='black'  d='M71.9,143.0 L80.9,143.0 M575.0,143.0 L566.0,143.0  '/>	<g transform="translate(63.6,147.5)" stroke="none" fill="black" font-family="Arial" font-size="12.00"  text-anchor="end">
		<text><tspan font-family="Arial" > 1</tspan></text>
	</g>
</g>
<g fill="none" color="black" stroke="currentColor" stroke-width="1.00" stroke-linecap="butt" stroke-linejoin="miter">
	<path stroke='black'  d='M71.9,79.5 L80.9,79.5 M575.0,79.5 L566.0,79.5  '/>	<g transform="translate(63.6,84.0)" stroke="none" fill="black" font-family="Arial" font-size="12.00"  text-anchor="end">
		<text><tspan font-family="Arial" > 1.5</tspan></text>
	</g>
</g>
<g fill="none" color="black" stroke="currentColor" stroke-width="1.00" stroke-linecap="butt" stroke-linejoin="miter">
	<path stroke='black'  d='M71.9,422.4 L71.9,413.4 M71.9,54.1 L71.9,63.1  '/>	<g transform="translate(71.9,444.9)" stroke="none" fill="black" font-family="Arial" font-size="12.00"  text-anchor="middle">
		<text><tspan font-family="Arial" > 0</tspan></text>
	</g>
</g>
<g fill="none" color="black" stroke="currentColor" stroke-width="1.00" stroke-linecap="butt" stroke-linejoin="miter">
	<path stroke='black'  d='M152.0,422.4 L152.0,413.4 M152.0,54.1 L152.0,63.1  '/>	<g transform="translate(152.0,444.9)" stroke="none" fill="black" font-family="Arial" font-size="12.00"  text-anchor="middle">
		<text><tspan font-family="Arial" > 1</tspan></text>
	</g>
</g>
<g fill="none" color="black" stroke="currentColor" stroke-width="1.00" stroke-linecap="butt" stroke-linejoin="miter">
	<path stroke='black'  d='M232.0,422.4 L232.0,413.4 M232.0,54.1 L232.0,63.1  '/>	<g transform="translate(232.0,444.9)" stroke="none" fill="black" font-family="Arial" font-size="12.00"  text-anchor="middle">
		<text><tspan font-family="Arial" > 2</tspan></text>
	</g>
</g>
<g fill="none" color="black" stroke="currentColor" stroke-width="1.00" stroke-linecap="butt" stroke-linejoin="miter">
	<path stroke='black'  d='M312.1,422.4 L312.1,413.4 M312.1,54.1 L312.1,63.1  '/>	<g transform="translate(312.1,444.9)" stroke="none" fill="black" font-family="Arial" font-size="12.00"  text-anchor="middle">
		<text><tspan font-family="Arial" > 3</tspan></text>
	</g>
</g>
<g fill="none" color="black" stroke="currentColor" stroke-width="1.00" stroke-linecap="butt" stroke-linejoin="miter">
	<path stroke='black'  d='M392.2,422.4 L392.2,413.4 M392.2,54.1 L392.2,63.1  '/>	<g transform="translate(392.2,444.9)" stroke="none" fill="black" font-family="Arial" font-size="12.00"  text-anchor="middle">
		<text><tspan font-family="Arial" > 4</tspan></text>
	</g>
</g>
<g fill="none" color="black" stroke="currentColor" stroke-width="1.00" stroke-linecap="butt" stroke-linejoin="miter">
	<path stroke='black'  d='M472.3,422.4 L472.3,413.4 M472.3,54.1 L472.3,63.1  '/>	<g transform="translate(472.3,444.9)" stroke="none" fill="black" font-family="Arial" font-size="12.00"  text-anchor="middle">
		<text><tspan font-family="Arial" > 5</tspan></text>
	</g>
</g>
<g fill="none" color="black" stroke="currentColor" stroke-width="1.00" stroke-linecap="butt" stroke-linejoin="miter">
	<path stroke='black'  d='M552.3,422.4 L552.3,413.4 M552.3,54.1 L552.3,63.1  '/>	<g transform="translate(552.3,444.9)" stroke="none" fill="black" font-family="Arial" font-size="12.00"  text-anchor="middle">
		<text><tspan font-family="Arial" > 6</tspan></text>
	</g>
</g>
<g fill="none" color="black" stroke="currentColor" stroke-width="1.00" stroke-linecap="butt" stroke-linejoin="miter">
</g>
<g fill="none" color="black" stroke="currentColor" stroke-width="1.00" stroke-linecap="butt" stroke-linejoin="miter">
	<path stroke='black'  d='M71.9,54.1 L71.9,422.4 L575.0,422.4 L575.0,54.1 L71.9,54.1 Z  '/></g>
<g fill="none" color="black" stroke="currentColor" stroke-width="1.00" stroke-linecap="butt" stroke-linejoin="miter">
	<g transform="translate(17.6,238.3) rotate(270)" stroke="none" fill="black" font-family="Arial" font-size="12.00"  text-anchor="middle">
		<text><tspan font-family="Arial" >y</tspan></text>
	</g>
</g>
<g fill="none" color="black" stroke="currentColor" stroke-width="1.00" stroke-linecap="butt" stroke-linejoin="miter">
	<g transform="translate(323.4,471.9)" stroke="none" fill="black" font-family="Arial" font-size="12.00"  text-anchor="middle">
		<text><tspan font-family="Arial" >x</tspan></text>
	</g>
</g>
<g fill="none" color="black" stroke="currentColor" stroke-width="1.00" stroke-linecap="butt" stroke-linejoin="miter">
	<g transform="translate(323.4,31.6)" stroke="none" fill="black" font-family="Arial" font-size="12.00"  text-anchor="middle">
		<text><tspan font-family="Arial" >Interpolation qubic spline with derivative and integral</tspan></text>
	</g>
</g>
	<g id="gnuplot_plot_1" ><title>Tabulated function</title>
<g fill="none" color="black" stroke="currentColor" stroke-width="1.00" stroke-linecap="butt" stroke-linejoin="miter">
	<g transform="translate(258.2,76.6)" stroke="none" fill="black" font-family="Arial" font-size="12.00"  text-anchor="end">
		<text><tspan font-family="Arial" >Tabulated function</tspan></text>
	</g>
</g>
<g fill="none" color="black" stroke="currentColor" stroke-width="1.00" stroke-linecap="butt" stroke-linejoin="miter">
	<use xlink:href='#gpPt0' transform='translate(71.9,143.0) scale(4.50)' color='rgb(148,   0, 211)'/>
	<use xlink:href='#gpPt0' transform='translate(97.4,149.4) scale(4.50)' color='rgb(148,   0, 211)'/>
	<use xlink:href='#gpPt0' transform='translate(122.9,167.9) scale(4.50)' color='rgb(148,   0, 211)'/>
	<use xlink:href='#gpPt0' transform='translate(148.4,196.6) scale(4.50)' color='rgb(148,   0, 211)'/>
	<use xlink:href='#gpPt0' transform='translate(173.8,232.8) scale(4.50)' color='rgb(148,   0, 211)'/>
	<use xlink:href='#gpPt0' transform='translate(199.3,272.6) scale(4.50)' color='rgb(148,   0, 211)'/>
	<use xlink:href='#gpPt0' transform='translate(224.8,312.2) scale(4.50)' color='rgb(148,   0, 211)'/>
	<use xlink:href='#gpPt0' transform='translate(250.3,347.6) scale(4.50)' color='rgb(148,   0, 211)'/>
	<use xlink:href='#gpPt0' transform='translate(275.8,375.2) scale(4.50)' color='rgb(148,   0, 211)'/>
	<use xlink:href='#gpPt0' transform='translate(301.3,392.2) scale(4.50)' color='rgb(148,   0, 211)'/>
	<use xlink:href='#gpPt0' transform='translate(326.8,396.9) scale(4.50)' color='rgb(148,   0, 211)'/>
	<use xlink:href='#gpPt0' transform='translate(352.3,388.9) scale(4.50)' color='rgb(148,   0, 211)'/>
	<use xlink:href='#gpPt0' transform='translate(377.7,368.9) scale(4.50)' color='rgb(148,   0, 211)'/>
	<use xlink:href='#gpPt0' transform='translate(403.2,339.0) scale(4.50)' color='rgb(148,   0, 211)'/>
	<use xlink:href='#gpPt0' transform='translate(428.7,302.2) scale(4.50)' color='rgb(148,   0, 211)'/>
	<use xlink:href='#gpPt0' transform='translate(454.2,262.1) scale(4.50)' color='rgb(148,   0, 211)'/>
	<use xlink:href='#gpPt0' transform='translate(479.7,222.8) scale(4.50)' color='rgb(148,   0, 211)'/>
	<use xlink:href='#gpPt0' transform='translate(505.2,188.3) scale(4.50)' color='rgb(148,   0, 211)'/>
	<use xlink:href='#gpPt0' transform='translate(530.7,162.0) scale(4.50)' color='rgb(148,   0, 211)'/>
	<use xlink:href='#gpPt0' transform='translate(556.2,146.5) scale(4.50)' color='rgb(148,   0, 211)'/>
	<use xlink:href='#gpPt0' transform='translate(287.6,72.1) scale(4.50)' color='rgb(148,   0, 211)'/>
</g>
	</g>
	<g id="gnuplot_plot_2" ><title>Tabulated integral</title>
<g fill="none" color="black" stroke="currentColor" stroke-width="1.00" stroke-linecap="butt" stroke-linejoin="miter">
	<g transform="translate(258.2,94.6)" stroke="none" fill="black" font-family="Arial" font-size="12.00"  text-anchor="end">
		<text><tspan font-family="Arial" >Tabulated integral</tspan></text>
	</g>
</g>
<g fill="none" color="black" stroke="currentColor" stroke-width="1.00" stroke-linecap="butt" stroke-linejoin="miter">
	<use xlink:href='#gpPt1' transform='translate(71.9,270.0) scale(4.50)' color='rgb(  0, 158, 115)'/>
	<use xlink:href='#gpPt1' transform='translate(97.4,230.3) scale(4.50)' color='rgb(  0, 158, 115)'/>
	<use xlink:href='#gpPt1' transform='translate(122.9,194.5) scale(4.50)' color='rgb(  0, 158, 115)'/>
	<use xlink:href='#gpPt1' transform='translate(148.4,166.3) scale(4.50)' color='rgb(  0, 158, 115)'/>
	<use xlink:href='#gpPt1' transform='translate(173.8,148.6) scale(4.50)' color='rgb(  0, 158, 115)'/>
	<use xlink:href='#gpPt1' transform='translate(199.3,143.0) scale(4.50)' color='rgb(  0, 158, 115)'/>
	<use xlink:href='#gpPt1' transform='translate(224.8,150.2) scale(4.50)' color='rgb(  0, 158, 115)'/>
	<use xlink:href='#gpPt1' transform='translate(250.3,169.5) scale(4.50)' color='rgb(  0, 158, 115)'/>
	<use xlink:href='#gpPt1' transform='translate(275.8,198.8) scale(4.50)' color='rgb(  0, 158, 115)'/>
	<use xlink:href='#gpPt1' transform='translate(301.3,235.3) scale(4.50)' color='rgb(  0, 158, 115)'/>
	<use xlink:href='#gpPt1' transform='translate(326.8,275.3) scale(4.50)' color='rgb(  0, 158, 115)'/>
	<use xlink:href='#gpPt1' transform='translate(352.3,314.7) scale(4.50)' color='rgb(  0, 158, 115)'/>
	<use xlink:href='#gpPt1' transform='translate(377.7,349.7) scale(4.50)' color='rgb(  0, 158, 115)'/>
	<use xlink:href='#gpPt1' transform='translate(403.2,376.6) scale(4.50)' color='rgb(  0, 158, 115)'/>
	<use xlink:href='#gpPt1' transform='translate(428.7,392.9) scale(4.50)' color='rgb(  0, 158, 115)'/>
	<use xlink:href='#gpPt1' transform='translate(454.2,396.8) scale(4.50)' color='rgb(  0, 158, 115)'/>
	<use xlink:href='#gpPt1' transform='translate(479.7,387.9) scale(4.50)' color='rgb(  0, 158, 115)'/>
	<use xlink:href='#gpPt1' transform='translate(505.2,367.2) scale(4.50)' color='rgb(  0, 158, 115)'/>
	<use xlink:href='#gpPt1' transform='translate(530.7,336.8) scale(4.50)' color='rgb(  0, 158, 115)'/>
	<use xlink:href='#gpPt1' transform='translate(556.2,299.6) scale(4.50)' color='rgb(  0, 158, 115)'/>
	<use xlink:href='#gpPt1' transform='translate(287.6,90.1) scale(4.50)' color='rgb(  0, 158, 115)'/>
</g>
	</g>
	<g id="gnuplot_plot_3" ><title>Tabulated derivative</title>
<g fill="none" color="black" stroke="currentColor" stroke-width="1.00" stroke-linecap="butt" stroke-linejoin="miter">
	<g transform="translate(258.2,112.6)" stroke="none" fill="black" font-family="Arial" font-size="12.00"  text-anchor="end">
		<text><tspan font-family="Arial" >Tabulated derivative</tspan></text>
	</g>
</g>
<g fill="none" color="black" stroke="currentColor" stroke-width="1.00" stroke-linecap="butt" stroke-linejoin="miter">
	<use xlink:href='#gpPt2' transform='translate(71.9,270.0) scale(4.50)' color='rgb( 86, 180, 233)'/>
	<use xlink:href='#gpPt2' transform='translate(97.4,309.7) scale(4.50)' color='rgb( 86, 180, 233)'/>
	<use xlink:href='#gpPt2' transform='translate(122.9,345.5) scale(4.50)' color='rgb( 86, 180, 233)'/>
	<use xlink:href='#gpPt2' transform='translate(148.4,373.7) scale(4.50)' color='rgb( 86, 180, 233)'/>
	<use xlink:href='#gpPt2' transform='translate(173.8,391.4) scale(4.50)' color='rgb( 86, 180, 233)'/>
	<use xlink:href='#gpPt2' transform='translate(199.3,397.0) scale(4.50)' color='rgb( 86, 180, 233)'/>
	<use xlink:href='#gpPt2' transform='translate(224.8,389.8) scale(4.50)' color='rgb( 86, 180, 233)'/>
	<use xlink:href='#gpPt2' transform='translate(250.3,370.5) scale(4.50)' color='rgb( 86, 180, 233)'/>
	<use xlink:href='#gpPt2' transform='translate(275.8,341.2) scale(4.50)' color='rgb( 86, 180, 233)'/>
	<use xlink:href='#gpPt2' transform='translate(301.3,304.7) scale(4.50)' color='rgb( 86, 180, 233)'/>
	<use xlink:href='#gpPt2' transform='translate(326.8,264.7) scale(4.50)' color='rgb( 86, 180, 233)'/>
	<use xlink:href='#gpPt2' transform='translate(352.3,225.3) scale(4.50)' color='rgb( 86, 180, 233)'/>
	<use xlink:href='#gpPt2' transform='translate(377.7,190.3) scale(4.50)' color='rgb( 86, 180, 233)'/>
	<use xlink:href='#gpPt2' transform='translate(403.2,163.4) scale(4.50)' color='rgb( 86, 180, 233)'/>
	<use xlink:href='#gpPt2' transform='translate(428.7,147.1) scale(4.50)' color='rgb( 86, 180, 233)'/>
	<use xlink:href='#gpPt2' transform='translate(454.2,143.2) scale(4.50)' color='rgb( 86, 180, 233)'/>
	<use xlink:href='#gpPt2' transform='translate(479.7,152.1) scale(4.50)' color='rgb( 86, 180, 233)'/>
	<use xlink:href='#gpPt2' transform='translate(505.2,172.8) scale(4.50)' color='rgb( 86, 180, 233)'/>
	<use xlink:href='#gpPt2' transform='translate(530.7,203.2) scale(4.50)' color='rgb( 86, 180, 233)'/>
	<use xlink:href='#gpPt2' transform='translate(556.2,240.4) scale(4.50)' color='rgb( 86, 180, 233)'/>
	<use xlink:href='#gpPt2' transform='translate(287.6,108.1) scale(4.50)' color='rgb( 86, 180, 233)'/>
</g>
	</g>
	<g id="gnuplot_plot_4" ><title>Interpolated function</title>
<g fill="none" color="black" stroke="currentColor" stroke-width="1.00" stroke-linecap="butt" stroke-linejoin="miter">
	<g transform="translate(507.9,76.6)" stroke="none" fill="black" font-family="Arial" font-size="12.00"  text-anchor="end">
		<text><tspan font-family="Arial" >Interpolated function</tspan></text>
	</g>
</g>
<g fill="none" color="black" stroke="currentColor" stroke-width="1.00" stroke-linecap="butt" stroke-linejoin="miter">
	<path stroke='rgb(230, 159,   0)'  d='M516.2,72.1 L558.4,72.1 M71.9,143.0 L72.9,143.2 L73.8,143.5 L74.8,143.7 L75.8,143.9 L76.7,144.2
		L77.7,144.4 L78.7,144.7 L79.6,144.9 L80.6,145.1 L81.6,145.4 L82.6,145.6 L83.5,145.9 L84.5,146.1
		L85.5,146.3 L86.4,146.6 L87.4,146.8 L88.4,147.1 L89.3,147.3 L90.3,147.6 L91.3,147.8 L92.2,148.1
		L93.2,148.3 L94.2,148.6 L95.1,148.8 L96.1,149.1 L97.1,149.3 L98.1,149.6 L99.0,149.9 L100.0,150.2
		L101.0,150.5 L101.9,150.9 L102.9,151.4 L103.9,151.8 L104.8,152.3 L105.8,152.9 L106.8,153.4 L107.7,154.0
		L108.7,154.7 L109.7,155.3 L110.6,156.0 L111.6,156.8 L112.6,157.5 L113.5,158.3 L114.5,159.2 L115.5,160.1
		L116.5,161.0 L117.4,161.9 L118.4,162.9 L119.4,163.9 L120.3,165.0 L121.3,166.0 L122.3,167.2 L123.2,168.3
		L124.2,169.5 L125.2,170.6 L126.1,171.7 L127.1,172.9 L128.1,174.0 L129.0,175.1 L130.0,176.3 L131.0,177.4
		L131.9,178.5 L132.9,179.6 L133.9,180.7 L134.9,181.8 L135.8,182.9 L136.8,184.0 L137.8,185.1 L138.7,186.2
		L139.7,187.2 L140.7,188.3 L141.6,189.4 L142.6,190.4 L143.6,191.5 L144.5,192.5 L145.5,193.6 L146.5,194.6
		L147.4,195.7 L148.4,196.7 L149.4,197.7 L150.4,198.8 L151.3,199.9 L152.3,201.0 L153.3,202.2 L154.2,203.3
		L155.2,204.5 L156.2,205.8 L157.1,207.0 L158.1,208.3 L159.1,209.6 L160.0,210.9 L161.0,212.3 L162.0,213.7
		L162.9,215.1 L163.9,216.5 L164.9,218.0 L165.8,219.5 L166.8,221.0 L167.8,222.5 L168.8,224.1 L169.7,225.7
		L170.7,227.3 L171.7,228.9 L172.6,230.6 L173.6,232.3 L174.6,234.0 L175.5,235.7 L176.5,237.4 L177.5,239.1
		L178.4,240.7 L179.4,242.4 L180.4,244.0 L181.3,245.6 L182.3,247.2 L183.3,248.7 L184.2,250.3 L185.2,251.9
		L186.2,253.4 L187.2,254.9 L188.1,256.4 L189.1,257.9 L190.1,259.3 L191.0,260.8 L192.0,262.2 L193.0,263.7
		L193.9,265.1 L194.9,266.5 L195.9,267.8 L196.8,269.2 L197.8,270.5 L198.8,271.9 L199.7,273.2 L200.7,274.5
		L201.7,275.9 L202.7,277.2 L203.6,278.6 L204.6,280.0 L205.6,281.4 L206.5,282.8 L207.5,284.2 L208.5,285.7
		L209.4,287.1 L210.4,288.6 L211.4,290.1 L212.3,291.6 L213.3,293.1 L214.3,294.6 L215.2,296.2 L216.2,297.7
		L217.2,299.3 L218.1,300.9 L219.1,302.5 L220.1,304.1 L221.1,305.7 L222.0,307.4 L223.0,309.1 L224.0,310.7
		L224.9,312.4 L225.9,314.1 L226.9,315.8 L227.8,317.4 L228.8,319.0 L229.8,320.5 L230.7,322.1 L231.7,323.6
		L232.7,325.1 L233.6,326.6 L234.6,328.0 L235.6,329.4 L236.5,330.8 L237.5,332.2 L238.5,333.5 L239.5,334.8
		L240.4,336.1 L241.4,337.3 L242.4,338.6 L243.3,339.8 L244.3,340.9 L245.3,342.1 L246.2,343.2 L247.2,344.3
		L248.2,345.3 L249.1,346.4 L250.1,347.4 L251.1,348.4 L252.0,349.4 L253.0,350.4 L254.0,351.4 L255.0,352.4
		L255.9,353.4 L256.9,354.4 L257.9,355.5 L258.8,356.5 L259.8,357.5 L260.8,358.5 L261.7,359.6 L262.7,360.6
		L263.7,361.7 L264.6,362.7 L265.6,363.8 L266.6,364.9 L267.5,365.9 L268.5,367.0 L269.5,368.1 L270.4,369.1
		L271.4,370.2 L272.4,371.3 L273.4,372.4 L274.3,373.5 L275.3,374.6 L276.3,375.7 L277.2,376.8 L278.2,377.8
		L279.2,378.8 L280.1,379.8 L281.1,380.7 L282.1,381.6 L283.0,382.4 L284.0,383.3 L285.0,384.1 L285.9,384.8
		L286.9,385.5 L287.9,386.2 L288.8,386.9 L289.8,387.5 L290.8,388.1 L291.8,388.6 L292.7,389.1 L293.7,389.6
		L294.7,390.1 L295.6,390.5 L296.6,390.8 L297.6,391.2 L298.5,391.5 L299.5,391.8 L300.5,392.0 L301.4,392.2
		L302.4,392.4 L303.4,392.6 L304.3,392.8 L305.3,392.9 L306.3,393.1 L307.3,393.3 L308.2,393.5 L309.2,393.7
		L310.2,393.9 L311.1,394.0 L312.1,394.2 L313.1,394.4 L314.0,394.6 L315.0,394.8 L316.0,394.9 L316.9,395.1
		L317.9,395.3 L318.9,395.5 L319.8,395.7 L320.8,395.8 L321.8,396.0 L322.7,396.2 L323.7,396.3 L324.7,396.5
		L325.7,396.7 L326.6,396.9 L327.6,397.0 L328.6,397.1 L329.5,397.2 L330.5,397.3 L331.5,397.3 L332.4,397.3
		L333.4,397.2 L334.4,397.1 L335.3,397.0 L336.3,396.8 L337.3,396.6 L338.2,396.4 L339.2,396.1 L340.2,395.8
		L341.1,395.4 L342.1,395.1 L343.1,394.6 L344.1,394.2 L345.0,393.7 L346.0,393.2 L347.0,392.6 L347.9,392.0
		L348.9,391.4 L349.9,390.7 L350.8,390.0 L351.8,389.2 L352.8,388.5 L353.7,387.7 L354.7,386.9 L355.7,386.1
		L356.6,385.4 L357.6,384.6 L358.6,383.8 L359.6,383.0 L360.5,382.3 L361.5,381.5 L362.5,380.7 L363.4,380.0
		L364.4,379.2 L365.4,378.5 L366.3,377.7 L367.3,377.0 L368.3,376.2 L369.2,375.4 L370.2,374.7 L371.2,373.9
		L372.1,373.2 L373.1,372.5 L374.1,371.7 L375.0,371.0 L376.0,370.2 L377.0,369.5 L378.0,368.7 L378.9,368.0
		L379.9,367.2 L380.9,366.4 L381.8,365.5 L382.8,364.6 L383.8,363.7 L384.7,362.8 L385.7,361.8 L386.7,360.8
		L387.6,359.8 L388.6,358.7 L389.6,357.6 L390.5,356.5 L391.5,355.4 L392.5,354.2 L393.4,353.0 L394.4,351.7
		L395.4,350.4 L396.4,349.1 L397.3,347.8 L398.3,346.4 L399.3,345.0 L400.2,343.6 L401.2,342.2 L402.2,340.7
		L403.1,339.2 L404.1,337.6 L405.1,336.1 L406.0,334.6 L407.0,333.1 L408.0,331.6 L408.9,330.1 L409.9,328.7
		L410.9,327.2 L411.9,325.8 L412.8,324.3 L413.8,322.9 L414.8,321.5 L415.7,320.1 L416.7,318.7 L417.7,317.3
		L418.6,315.9 L419.6,314.5 L420.6,313.2 L421.5,311.8 L422.5,310.5 L423.5,309.2 L424.4,307.9 L425.4,306.5
		L426.4,305.3 L427.3,304.0 L428.3,302.7 L429.3,301.4 L430.3,300.1 L431.2,298.8 L432.2,297.5 L433.2,296.2
		L434.1,294.8 L435.1,293.4 L436.1,292.0 L437.0,290.6 L438.0,289.2 L439.0,287.7 L439.9,286.2 L440.9,284.7
		L441.9,283.2 L442.8,281.6 L443.8,280.1 L444.8,278.5 L445.7,276.9 L446.7,275.3 L447.7,273.6 L448.7,272.0
		L449.6,270.3 L450.6,268.6 L451.6,266.9 L452.5,265.2 L453.5,263.4 L454.5,261.6 L455.4,259.9 L456.4,258.1
		L457.4,256.4 L458.3,254.7 L459.3,253.0 L460.3,251.4 L461.2,249.7 L462.2,248.1 L463.2,246.5 L464.2,245.0
		L465.1,243.4 L466.1,241.9 L467.1,240.4 L468.0,238.9 L469.0,237.5 L470.0,236.0 L470.9,234.6 L471.9,233.2
		L472.9,231.9 L473.8,230.5 L474.8,229.2 L475.8,227.9 L476.7,226.6 L477.7,225.3 L478.7,224.1 L479.6,222.9
		L480.6,221.7 L481.6,220.5 L482.6,219.2 L483.5,218.0 L484.5,216.8 L485.5,215.5 L486.4,214.3 L487.4,213.0
		L488.4,211.7 L489.3,210.4 L490.3,209.2 L491.3,207.9 L492.2,206.5 L493.2,205.2 L494.2,203.9 L495.1,202.6
		L496.1,201.2 L497.1,199.9 L498.0,198.5 L499.0,197.2 L500.0,195.8 L501.0,194.4 L501.9,193.0 L502.9,191.6
		L503.9,190.2 L504.8,188.8 L505.8,187.4 L506.8,186.0 L507.7,184.7 L508.7,183.3 L509.7,182.1 L510.6,180.8
		L511.6,179.6 L512.6,178.4 L513.5,177.2 L514.5,176.1 L515.5,175.0 L516.5,173.9 L517.4,172.9 L518.4,171.9
		L519.4,170.9 L520.3,170.0 L521.3,169.1 L522.3,168.2 L523.2,167.4 L524.2,166.6 L525.2,165.8 L526.1,165.0
		L527.1,164.3 L528.1,163.6 L529.0,163.0 L530.0,162.4 L531.0,161.8 L531.9,161.2 L532.9,160.6 L533.9,160.0
		L534.9,159.5 L535.8,158.9 L536.8,158.3 L537.8,157.7 L538.7,157.1 L539.7,156.5 L540.7,156.0 L541.6,155.4
		L542.6,154.8 L543.6,154.2 L544.5,153.6 L545.5,153.0 L546.5,152.4 L547.4,151.8 L548.4,151.2 L549.4,150.7
		L550.3,150.1 L551.3,149.5 L552.3,148.9 L553.3,148.3 L554.2,147.7 L555.2,147.1  '/></g>
	</g>
	<g id="gnuplot_plot_5" ><title>Interpolated integral</title>
<g fill="none" color="black" stroke="currentColor" stroke-width="1.00" stroke-linecap="butt" stroke-linejoin="miter">
	<g transform="translate(507.9,94.6)" stroke="none" fill="black" font-family="Arial" font-size="12.00"  text-anchor="end">
		<text><tspan font-family="Arial" >Interpolated integral</tspan></text>
	</g>
</g>
<g fill="none" color="black" stroke="currentColor" stroke-width="1.00" stroke-linecap="butt" stroke-linejoin="miter">
	<path stroke='rgb(240, 228,  66)'  d='M516.2,90.1 L558.4,90.1 M71.9,270.0 L72.9,268.5 L73.8,266.9 L74.8,265.4 L75.8,263.9 L76.7,262.4
		L77.7,260.8 L78.7,259.3 L79.6,257.8 L80.6,256.3 L81.6,254.8 L82.6,253.3 L83.5,251.8 L84.5,250.3
		L85.5,248.8 L86.4,247.3 L87.4,245.8 L88.4,244.3 L89.3,242.8 L90.3,241.3 L91.3,239.9 L92.2,238.4
		L93.2,236.9 L94.2,235.4 L95.1,234.0 L96.1,232.5 L97.1,231.0 L98.1,229.6 L99.0,228.1 L100.0,226.7
		L101.0,225.2 L101.9,223.8 L102.9,222.3 L103.9,220.9 L104.8,219.5 L105.8,218.1 L106.8,216.7 L107.7,215.2
		L108.7,213.8 L109.7,212.5 L110.6,211.1 L111.6,209.7 L112.6,208.3 L113.5,207.0 L114.5,205.6 L115.5,204.3
		L116.5,203.0 L117.4,201.7 L118.4,200.4 L119.4,199.1 L120.3,197.8 L121.3,196.5 L122.3,195.3 L123.2,194.0
		L124.2,192.8 L125.2,191.6 L126.1,190.4 L127.1,189.2 L128.1,188.1 L129.0,186.9 L130.0,185.8 L131.0,184.6
		L131.9,183.5 L132.9,182.4 L133.9,181.3 L134.9,180.3 L135.8,179.2 L136.8,178.2 L137.8,177.1 L138.7,176.1
		L139.7,175.1 L140.7,174.1 L141.6,173.1 L142.6,172.2 L143.6,171.2 L144.5,170.3 L145.5,169.3 L146.5,168.4
		L147.4,167.5 L148.4,166.6 L149.4,165.7 L150.4,164.9 L151.3,164.0 L152.3,163.2 L153.3,162.3 L154.2,161.5
		L155.2,160.7 L156.2,159.9 L157.1,159.2 L158.1,158.4 L159.1,157.7 L160.0,157.0 L161.0,156.3 L162.0,155.6
		L162.9,154.9 L163.9,154.2 L164.9,153.6 L165.8,153.0 L166.8,152.4 L167.8,151.8 L168.8,151.2 L169.7,150.7
		L170.7,150.2 L171.7,149.6 L172.6,149.2 L173.6,148.7 L174.6,148.2 L175.5,147.8 L176.5,147.4 L177.5,147.0
		L178.4,146.7 L179.4,146.3 L180.4,146.0 L181.3,145.7 L182.3,145.4 L183.3,145.1 L184.2,144.9 L185.2,144.7
		L186.2,144.5 L187.2,144.3 L188.1,144.1 L189.1,143.9 L190.1,143.8 L191.0,143.7 L192.0,143.6 L193.0,143.5
		L193.9,143.4 L194.9,143.4 L195.9,143.3 L196.8,143.3 L197.8,143.3 L198.8,143.3 L199.7,143.4 L200.7,143.4
		L201.7,143.5 L202.7,143.6 L203.6,143.6 L204.6,143.8 L205.6,143.9 L206.5,144.0 L207.5,144.2 L208.5,144.4
		L209.4,144.6 L210.4,144.8 L211.4,145.0 L212.3,145.3 L213.3,145.5 L214.3,145.8 L215.2,146.1 L216.2,146.5
		L217.2,146.8 L218.1,147.2 L219.1,147.6 L220.1,148.0 L221.1,148.4 L222.0,148.8 L223.0,149.3 L224.0,149.8
		L224.9,150.3 L225.9,150.8 L226.9,151.3 L227.8,151.9 L228.8,152.5 L229.8,153.1 L230.7,153.7 L231.7,154.4
		L232.7,155.0 L233.6,155.7 L234.6,156.4 L235.6,157.1 L236.5,157.8 L237.5,158.6 L238.5,159.3 L239.5,160.1
		L240.4,160.9 L241.4,161.7 L242.4,162.5 L243.3,163.4 L244.3,164.2 L245.3,165.1 L246.2,165.9 L247.2,166.8
		L248.2,167.7 L249.1,168.7 L250.1,169.6 L251.1,170.5 L252.0,171.5 L253.0,172.5 L254.0,173.4 L255.0,174.4
		L255.9,175.4 L256.9,176.4 L257.9,177.5 L258.8,178.5 L259.8,179.6 L260.8,180.6 L261.7,181.7 L262.7,182.8
		L263.7,183.9 L264.6,185.0 L265.6,186.1 L266.6,187.3 L267.5,188.4 L268.5,189.6 L269.5,190.8 L270.4,192.0
		L271.4,193.2 L272.4,194.4 L273.4,195.6 L274.3,196.9 L275.3,198.1 L276.3,199.4 L277.2,200.7 L278.2,202.0
		L279.2,203.3 L280.1,204.6 L281.1,206.0 L282.1,207.3 L283.0,208.6 L284.0,210.0 L285.0,211.4 L285.9,212.8
		L286.9,214.2 L287.9,215.6 L288.8,217.0 L289.8,218.4 L290.8,219.8 L291.8,221.3 L292.7,222.7 L293.7,224.1
		L294.7,225.6 L295.6,227.0 L296.6,228.5 L297.6,230.0 L298.5,231.4 L299.5,232.9 L300.5,234.4 L301.4,235.9
		L302.4,237.3 L303.4,238.8 L304.3,240.3 L305.3,241.8 L306.3,243.3 L307.3,244.8 L308.2,246.3 L309.2,247.7
		L310.2,249.2 L311.1,250.7 L312.1,252.2 L313.1,253.8 L314.0,255.3 L315.0,256.8 L316.0,258.3 L316.9,259.8
		L317.9,261.3 L318.9,262.8 L319.8,264.3 L320.8,265.9 L321.8,267.4 L322.7,268.9 L323.7,270.4 L324.7,272.0
		L325.7,273.5 L326.6,275.0 L327.6,276.6 L328.6,278.1 L329.5,279.6 L330.5,281.2 L331.5,282.7 L332.4,284.3
		L333.4,285.8 L334.4,287.3 L335.3,288.9 L336.3,290.4 L337.3,291.9 L338.2,293.5 L339.2,295.0 L340.2,296.5
		L341.1,298.0 L342.1,299.6 L343.1,301.1 L344.1,302.6 L345.0,304.1 L346.0,305.6 L347.0,307.0 L347.9,308.5
		L348.9,310.0 L349.9,311.5 L350.8,312.9 L351.8,314.4 L352.8,315.8 L353.7,317.2 L354.7,318.6 L355.7,320.1
		L356.6,321.5 L357.6,322.8 L358.6,324.2 L359.6,325.6 L360.5,327.0 L361.5,328.3 L362.5,329.7 L363.4,331.0
		L364.4,332.3 L365.4,333.6 L366.3,334.9 L367.3,336.2 L368.3,337.5 L369.2,338.8 L370.2,340.1 L371.2,341.3
		L372.1,342.6 L373.1,343.8 L374.1,345.1 L375.0,346.3 L376.0,347.5 L377.0,348.7 L378.0,349.9 L378.9,351.1
		L379.9,352.3 L380.9,353.5 L381.8,354.6 L382.8,355.8 L383.8,356.9 L384.7,358.0 L385.7,359.2 L386.7,360.3
		L387.6,361.4 L388.6,362.4 L389.6,363.5 L390.5,364.6 L391.5,365.6 L392.5,366.6 L393.4,367.6 L394.4,368.6
		L395.4,369.6 L396.4,370.6 L397.3,371.5 L398.3,372.5 L399.3,373.4 L400.2,374.3 L401.2,375.2 L402.2,376.0
		L403.1,376.9 L404.1,377.7 L405.1,378.5 L406.0,379.3 L407.0,380.1 L408.0,380.8 L408.9,381.6 L409.9,382.3
		L410.9,383.0 L411.9,383.7 L412.8,384.3 L413.8,385.0 L414.8,385.6 L415.7,386.2 L416.7,386.8 L417.7,387.4
		L418.6,388.0 L419.6,388.5 L420.6,389.0 L421.5,389.5 L422.5,390.0 L423.5,390.5 L424.4,391.0 L425.4,391.4
		L426.4,391.9 L427.3,392.3 L428.3,392.7 L429.3,393.1 L430.3,393.5 L431.2,393.8 L432.2,394.2 L433.2,394.5
		L434.1,394.8 L435.1,395.1 L436.1,395.4 L437.0,395.6 L438.0,395.9 L439.0,396.1 L439.9,396.3 L440.9,396.5
		L441.9,396.6 L442.8,396.8 L443.8,396.9 L444.8,397.0 L445.7,397.1 L446.7,397.2 L447.7,397.3 L448.7,397.3
		L449.6,397.3 L450.6,397.3 L451.6,397.3 L452.5,397.2 L453.5,397.2 L454.5,397.1 L455.4,397.0 L456.4,396.8
		L457.4,396.7 L458.3,396.5 L459.3,396.3 L460.3,396.1 L461.2,395.8 L462.2,395.6 L463.2,395.3 L464.2,395.0
		L465.1,394.7 L466.1,394.4 L467.1,394.0 L468.0,393.7 L469.0,393.3 L470.0,392.9 L470.9,392.5 L471.9,392.0
		L472.9,391.6 L473.8,391.1 L474.8,390.6 L475.8,390.1 L476.7,389.6 L477.7,389.1 L478.7,388.5 L479.6,388.0
		L480.6,387.4 L481.6,386.8 L482.6,386.2 L483.5,385.6 L484.5,384.9 L485.5,384.3 L486.4,383.6 L487.4,382.9
		L488.4,382.2 L489.3,381.5 L490.3,380.8 L491.3,380.0 L492.2,379.3 L493.2,378.5 L494.2,377.7 L495.1,376.9
		L496.1,376.1 L497.1,375.2 L498.0,374.4 L499.0,373.5 L500.0,372.6 L501.0,371.7 L501.9,370.8 L502.9,369.9
		L503.9,368.9 L504.8,367.9 L505.8,366.9 L506.8,365.9 L507.7,364.9 L508.7,363.9 L509.7,362.8 L510.6,361.7
		L511.6,360.6 L512.6,359.5 L513.5,358.4 L514.5,357.3 L515.5,356.2 L516.5,355.0 L517.4,353.8 L518.4,352.7
		L519.4,351.5 L520.3,350.3 L521.3,349.0 L522.3,347.8 L523.2,346.6 L524.2,345.3 L525.2,344.1 L526.1,342.8
		L527.1,341.5 L528.1,340.3 L529.0,339.0 L530.0,337.7 L531.0,336.4 L531.9,335.0 L532.9,333.7 L533.9,332.4
		L534.9,331.1 L535.8,329.7 L536.8,328.4 L537.8,327.0 L538.7,325.7 L539.7,324.3 L540.7,322.9 L541.6,321.5
		L542.6,320.1 L543.6,318.8 L544.5,317.3 L545.5,315.9 L546.5,314.5 L547.4,313.1 L548.4,311.7 L549.4,310.2
		L550.3,308.8 L551.3,307.3 L552.3,305.9 L553.3,304.4 L554.2,302.9 L555.2,301.4  '/></g>
	</g>
	<g id="gnuplot_plot_6" ><title>Interpolated derivative</title>
<g fill="none" color="black" stroke="currentColor" stroke-width="1.00" stroke-linecap="butt" stroke-linejoin="miter">
	<g transform="translate(507.9,112.6)" stroke="none" fill="black" font-family="Arial" font-size="12.00"  text-anchor="end">
		<text><tspan font-family="Arial" >Interpolated derivative</tspan></text>
	</g>
</g>
<g fill="none" color="black" stroke="currentColor" stroke-width="1.00" stroke-linecap="butt" stroke-linejoin="miter">
	<path stroke='rgb(  0, 114, 178)'  d='M516.2,108.1 L558.4,108.1 M71.9,289.4 L72.9,289.4 L73.8,289.5 L74.8,289.5 L75.8,289.6 L76.7,289.6
		L77.7,289.7 L78.7,289.7 L79.6,289.8 L80.6,289.8 L81.6,289.9 L82.6,289.9 L83.5,290.0 L84.5,290.0
		L85.5,290.1 L86.4,290.1 L87.4,290.2 L88.4,290.2 L89.3,290.3 L90.3,290.3 L91.3,290.4 L92.2,290.4
		L93.2,290.5 L94.2,290.5 L95.1,290.6 L96.1,290.6 L97.1,290.7 L98.1,292.6 L99.0,295.5 L100.0,298.3
		L101.0,301.2 L101.9,304.0 L102.9,306.9 L103.9,309.7 L104.8,312.5 L105.8,315.4 L106.8,318.2 L107.7,321.1
		L108.7,323.9 L109.7,326.8 L110.6,329.6 L111.6,332.5 L112.6,335.3 L113.5,338.1 L114.5,341.0 L115.5,343.8
		L116.5,346.7 L117.4,349.5 L118.4,352.4 L119.4,355.2 L120.3,358.1 L121.3,360.9 L122.3,363.7 L123.2,365.4
		L124.2,365.0 L125.2,364.6 L126.1,364.2 L127.1,363.8 L128.1,363.4 L129.0,363.0 L130.0,362.6 L131.0,362.2
		L131.9,361.8 L132.9,361.4 L133.9,361.1 L134.9,360.7 L135.8,360.3 L136.8,359.9 L137.8,359.5 L138.7,359.1
		L139.7,358.7 L140.7,358.3 L141.6,357.9 L142.6,357.5 L143.6,357.1 L144.5,356.7 L145.5,356.3 L146.5,355.9
		L147.4,355.5 L148.4,355.3 L149.4,357.4 L150.4,359.6 L151.3,361.7 L152.3,363.9 L153.3,366.0 L154.2,368.2
		L155.2,370.4 L156.2,372.5 L157.1,374.7 L158.1,376.8 L159.1,379.0 L160.0,381.1 L161.0,383.3 L162.0,385.4
		L162.9,387.6 L163.9,389.7 L164.9,391.9 L165.8,394.0 L166.8,396.2 L167.8,398.4 L168.8,400.5 L169.7,402.7
		L170.7,404.8 L171.7,407.0 L172.6,409.1 L173.6,411.3 L174.6,410.9 L175.5,409.7 L176.5,408.4 L177.5,407.1
		L178.4,405.9 L179.4,404.6 L180.4,403.4 L181.3,402.1 L182.3,400.8 L183.3,399.6 L184.2,398.3 L185.2,397.0
		L186.2,395.8 L187.2,394.5 L188.1,393.3 L189.1,392.0 L190.1,390.7 L191.0,389.5 L192.0,388.2 L193.0,387.0
		L193.9,385.7 L194.9,384.4 L195.9,383.2 L196.8,381.9 L197.8,380.7 L198.8,379.4 L199.7,379.2 L200.7,380.4
		L201.7,381.6 L202.7,382.8 L203.6,384.0 L204.6,385.2 L205.6,386.4 L206.5,387.6 L207.5,388.8 L208.5,389.9
		L209.4,391.1 L210.4,392.3 L211.4,393.5 L212.3,394.7 L213.3,395.9 L214.3,397.1 L215.2,398.3 L216.2,399.5
		L217.2,400.7 L218.1,401.9 L219.1,403.1 L220.1,404.3 L221.1,405.5 L222.0,406.7 L223.0,407.9 L224.0,409.1
		L224.9,409.9 L225.9,407.7 L226.9,405.5 L227.8,403.3 L228.8,401.1 L229.8,398.9 L230.7,396.7 L231.7,394.5
		L232.7,392.3 L233.6,390.1 L234.6,387.8 L235.6,385.6 L236.5,383.4 L237.5,381.2 L238.5,379.0 L239.5,376.8
		L240.4,374.6 L241.4,372.4 L242.4,370.2 L243.3,367.9 L244.3,365.7 L245.3,363.5 L246.2,361.3 L247.2,359.1
		L248.2,356.9 L249.1,354.7 L250.1,352.5 L251.1,352.3 L252.0,352.6 L253.0,353.0 L254.0,353.3 L255.0,353.7
		L255.9,354.0 L256.9,354.4 L257.9,354.7 L258.8,355.1 L259.8,355.4 L260.8,355.8 L261.7,356.1 L262.7,356.5
		L263.7,356.8 L264.6,357.2 L265.6,357.5 L266.6,357.9 L267.5,358.2 L268.5,358.6 L269.5,358.9 L270.4,359.3
		L271.4,359.6 L272.4,360.0 L273.4,360.3 L274.3,360.7 L275.3,361.0 L276.3,359.8 L277.2,357.0 L278.2,354.1
		L279.2,351.2 L280.1,348.3 L281.1,345.5 L282.1,342.6 L283.0,339.7 L284.0,336.9 L285.0,334.0 L285.9,331.1
		L286.9,328.2 L287.9,325.4 L288.8,322.5 L289.8,319.6 L290.8,316.8 L291.8,313.9 L292.7,311.0 L293.7,308.1
		L294.7,305.3 L295.6,302.4 L296.6,299.5 L297.6,296.6 L298.5,293.8 L299.5,290.9 L300.5,288.0 L301.4,285.6
		L302.4,285.5 L303.4,285.5 L304.3,285.4 L305.3,285.4 L306.3,285.3 L307.3,285.3 L308.2,285.2 L309.2,285.1
		L310.2,285.1 L311.1,285.0 L312.1,285.0 L313.1,284.9 L314.0,284.8 L315.0,284.8 L316.0,284.7 L316.9,284.7
		L317.9,284.6 L318.9,284.6 L319.8,284.5 L320.8,284.4 L321.8,284.4 L322.7,284.3 L323.7,284.3 L324.7,284.2
		L325.7,284.1 L326.6,284.1 L327.6,281.6 L328.6,278.6 L329.5,275.6 L330.5,272.6 L331.5,269.6 L332.4,266.6
		L333.4,263.6 L334.4,260.7 L335.3,257.7 L336.3,254.7 L337.3,251.7 L338.2,248.7 L339.2,245.7 L340.2,242.8
		L341.1,239.8 L342.1,236.8 L343.1,233.8 L344.1,230.8 L345.0,227.8 L346.0,224.8 L347.0,221.9 L347.9,218.9
		L348.9,215.9 L349.9,212.9 L350.8,209.9 L351.8,206.9 L352.8,205.6 L353.7,205.7 L354.7,205.8 L355.7,206.0
		L356.6,206.1 L357.6,206.3 L358.6,206.4 L359.6,206.5 L360.5,206.7 L361.5,206.8 L362.5,206.9 L363.4,207.1
		L364.4,207.2 L365.4,207.3 L366.3,207.5 L367.3,207.6 L368.3,207.7 L369.2,207.9 L370.2,208.0 L371.2,208.1
		L372.1,208.3 L373.1,208.4 L374.1,208.5 L375.0,208.7 L376.0,208.8 L377.0,208.9 L378.0,208.5 L378.9,206.0
		L379.9,203.5 L380.9,201.0 L381.8,198.5 L382.8,196.0 L383.8,193.5 L384.7,191.0 L385.7,188.5 L386.7,186.0
		L387.6,183.4 L388.6,180.9 L389.6,178.4 L390.5,175.9 L391.5,173.4 L392.5,170.9 L393.4,168.4 L394.4,165.9
		L395.4,163.4 L396.4,160.9 L397.3,158.4 L398.3,155.9 L399.3,153.4 L400.2,150.9 L401.2,148.4 L402.2,145.8
		L403.1,143.3 L404.1,143.8 L405.1,144.7 L406.0,145.5 L407.0,146.4 L408.0,147.2 L408.9,148.1 L409.9,148.9
		L410.9,149.8 L411.9,150.7 L412.8,151.5 L413.8,152.4 L414.8,153.2 L415.7,154.1 L416.7,154.9 L417.7,155.8
		L418.6,156.6 L419.6,157.5 L420.6,158.3 L421.5,159.2 L422.5,160.0 L423.5,160.9 L424.4,161.7 L425.4,162.6
		L426.4,163.4 L427.3,164.3 L428.3,165.1 L429.3,164.5 L430.3,162.9 L431.2,161.3 L432.2,159.7 L433.2,158.1
		L434.1,156.4 L435.1,154.8 L436.1,153.2 L437.0,151.6 L438.0,149.9 L439.0,148.3 L439.9,146.7 L440.9,145.1
		L441.9,143.4 L442.8,141.8 L443.8,140.2 L444.8,138.6 L445.7,137.0 L446.7,135.3 L447.7,133.7 L448.7,132.1
		L449.6,130.5 L450.6,128.8 L451.6,127.2 L452.5,125.6 L453.5,124.0 L454.5,123.3 L455.4,125.1 L456.4,126.9
		L457.4,128.7 L458.3,130.5 L459.3,132.3 L460.3,134.1 L461.2,135.9 L462.2,137.8 L463.2,139.6 L464.2,141.4
		L465.1,143.2 L466.1,145.0 L467.1,146.8 L468.0,148.6 L469.0,150.4 L470.0,152.3 L470.9,154.1 L471.9,155.9
		L472.9,157.7 L473.8,159.5 L474.8,161.3 L475.8,163.1 L476.7,164.9 L477.7,166.8 L478.7,168.6 L479.6,170.4
		L480.6,169.8 L481.6,169.1 L482.6,168.5 L483.5,167.8 L484.5,167.1 L485.5,166.4 L486.4,165.7 L487.4,165.1
		L488.4,164.4 L489.3,163.7 L490.3,163.0 L491.3,162.3 L492.2,161.7 L493.2,161.0 L494.2,160.3 L495.1,159.6
		L496.1,158.9 L497.1,158.3 L498.0,157.6 L499.0,156.9 L500.0,156.2 L501.0,155.5 L501.9,154.8 L502.9,154.2
		L503.9,153.5 L504.8,152.8 L505.8,154.2 L506.8,156.9 L507.7,159.5 L508.7,162.1 L509.7,164.8 L510.6,167.4
		L511.6,170.1 L512.6,172.7 L513.5,175.3 L514.5,178.0 L515.5,180.6 L516.5,183.3 L517.4,185.9 L518.4,188.6
		L519.4,191.2 L520.3,193.8 L521.3,196.5 L522.3,199.1 L523.2,201.8 L524.2,204.4 L525.2,207.0 L526.1,209.7
		L527.1,212.3 L528.1,215.0 L529.0,217.6 L530.0,220.2 L531.0,222.0 L531.9,222.0 L532.9,221.9 L533.9,221.9
		L534.9,221.8 L535.8,221.8 L536.8,221.7 L537.8,221.7 L538.7,221.6 L539.7,221.6 L540.7,221.5 L541.6,221.5
		L542.6,221.4 L543.6,221.4 L544.5,221.3 L545.5,221.3 L546.5,221.2 L547.4,221.2 L548.4,221.1 L549.4,221.1
		L550.3,221.0 L551.3,221.0 L552.3,220.9 L553.3,220.9 L554.2,220.8 L555.2,220.8  '/></g>
	</g>
<g fill="none" color="#FFFFFF" stroke="rgb(  0, 114, 178)" stroke-width="2.00" stroke-linecap="butt" stroke-linejoin="miter">
</g>
<g fill="none" color="black" stroke="currentColor" stroke-width="2.00" stroke-linecap="butt" stroke-linejoin="miter">
</g>
<g fill="none" color="black" stroke="black" stroke-width="1.00" stroke-linecap="butt" stroke-linejoin="miter">
</g>
<g fill="none" color="black" stroke="currentColor" stroke-width="1.00" stroke-linecap="butt" stroke-linejoin="miter">
	<path stroke='black'  d='M71.9,54.1 L71.9,422.4 L575.0,422.4 L575.0,54.1 L71.9,54.1 Z  '/></g>
<g fill="none" color="black" stroke="currentColor" stroke-width="1.00" stroke-linecap="butt" stroke-linejoin="miter">
</g>
</g>
</svg>

