<?xml version="1.0" encoding="utf-8"  standalone="no"?>
<!DOCTYPE svg PUBLIC "-//W3C//DTD SVG 1.1//EN"
 "http://www.w3.org/Graphics/SVG/1.1/DTD/svg11.dtd">
<svg 
 width="600" height="480"
 viewBox="0 0 600 480"
 xmlns="http://www.w3.org/2000/svg"
 xmlns:xlink="http://www.w3.org/1999/xlink"
>

<title>Gnuplot</title>
<desc>Produced by GNUPLOT 5.0 patchlevel 3 </desc>

<g id="gnuplot_canvas">

<rect x="0" y="0" width="600" height="480" fill="#ffffff"/>
<defs>

	<circle id='gpDot' r='0.5' stroke-width='0.5'/>
	<path id='gpPt0' stroke-width='0.222' stroke='currentColor' d='M-1,0 h2 M0,-1 v2'/>
	<path id='gpPt1' stroke-width='0.222' stroke='currentColor' d='M-1,-1 L1,1 M1,-1 L-1,1'/>
	<path id='gpPt2' stroke-width='0.222' stroke='currentColor' d='M-1,0 L1,0 M0,-1 L0,1 M-1,-1 L1,1 M-1,1 L1,-1'/>
	<rect id='gpPt3' stroke-width='0.222' stroke='currentColor' x='-1' y='-1' width='2' height='2'/>
	<rect id='gpPt4' stroke-width='0.222' stroke='currentColor' fill='currentColor' x='-1' y='-1' width='2' height='2'/>
	<circle id='gpPt5' stroke-width='0.222' stroke='currentColor' cx='0' cy='0' r='1'/>
	<use xlink:href='#gpPt5' id='gpPt6' fill='currentColor' stroke='none'/>
	<path id='gpPt7' stroke-width='0.222' stroke='currentColor' d='M0,-1.33 L-1.33,0.67 L1.33,0.67 z'/>
	<use xlink:href='#gpPt7' id='gpPt8' fill='currentColor' stroke='none'/>
	<use xlink:href='#gpPt7' id='gpPt9' stroke='currentColor' transform='rotate(180)'/>
	<use xlink:href='#gpPt9' id='gpPt10' fill='currentColor' stroke='none'/>
	<use xlink:href='#gpPt3' id='gpPt11' stroke='currentColor' transform='rotate(45)'/>
	<use xlink:href='#gpPt11' id='gpPt12' fill='currentColor' stroke='none'/>
	<path id='gpPt13' stroke-width='0.222' stroke='currentColor' d='M0,1.330 L1.265,0.411 L0.782,-1.067 L-0.782,-1.076 L-1.265,0.411 z'/>
	<use xlink:href='#gpPt13' id='gpPt14' fill='currentColor' stroke='none'/>
	<filter id='textbox' filterUnits='objectBoundingBox' x='0' y='0' height='1' width='1'>
	  <feFlood flood-color='#FFFFFF' flood-opacity='1' result='bgnd'/>
	  <feComposite in='SourceGraphic' in2='bgnd' operator='atop'/>
	</filter>
	<filter id='greybox' filterUnits='objectBoundingBox' x='0' y='0' height='1' width='1'>
	  <feFlood flood-color='lightgrey' flood-opacity='1' result='grey'/>
	  <feComposite in='SourceGraphic' in2='grey' operator='atop'/>
	</filter>
</defs>
<g fill="none" color="#FFFFFF" stroke="currentColor" stroke-width="1.00" stroke-linecap="butt" stroke-linejoin="miter">
</g>
<g fill="none" color="black" stroke="currentColor" stroke-width="1.00" stroke-linecap="butt" stroke-linejoin="miter">
	<path stroke='black'  d='M71.9,422.4 L80.9,422.4 M575.0,422.4 L566.0,422.4  '/>	<g transform="translate(63.6,426.9)" stroke="none" fill="black" font-family="Arial" font-size="12.00"  text-anchor="end">
		<text><tspan font-family="Arial" >-1.5</tspan></text>
	</g>
</g>
<g fill="none" color="black" stroke="currentColor" stroke-width="1.00" stroke-linecap="butt" stroke-linejoin="miter">
	<path stroke='black'  d='M71.9,361.0 L80.9,361.0 M575.0,361.0 L566.0,361.0  '/>	<g transform="translate(63.6,365.5)" stroke="none" fill="black" font-family="Arial" font-size="12.00"  text-anchor="end">
		<text><tspan font-family="Arial" >-1</tspan></text>
	</g>
</g>
<g fill="none" color="black" stroke="currentColor" stroke-width="1.00" stroke-linecap="butt" stroke-linejoin="miter">
	<path stroke='black'  d='M71.9,299.6 L80.9,299.6 M575.0,299.6 L566.0,299.6  '/>	<g transform="translate(63.6,304.1)" stroke="none" fill="black" font-family="Arial" font-size="12.00"  text-anchor="end">
		<text><tspan font-family="Arial" >-0.5</tspan></text>
	</g>
</g>
<g fill="none" color="black" stroke="currentColor" stroke-width="1.00" stroke-linecap="butt" stroke-linejoin="miter">
	<path stroke='black'  d='M71.9,238.2 L80.9,238.2 M575.0,238.2 L566.0,238.2  '/>	<g transform="translate(63.6,242.7)" stroke="none" fill="black" font-family="Arial" font-size="12.00"  text-anchor="end">
		<text><tspan font-family="Arial" > 0</tspan></text>
	</g>
</g>
<g fill="none" color="black" stroke="currentColor" stroke-width="1.00" stroke-linecap="butt" stroke-linejoin="miter">
	<path stroke='black'  d='M71.9,176.9 L80.9,176.9 M575.0,176.9 L566.0,176.9  '/>	<g transform="translate(63.6,181.4)" stroke="none" fill="black" font-family="Arial" font-size="12.00"  text-anchor="end">
		<text><tspan font-family="Arial" > 0.5</tspan></text>
	</g>
</g>
<g fill="none" color="black" stroke="currentColor" stroke-width="1.00" stroke-linecap="butt" stroke-linejoin="miter">
	<path stroke='black'  d='M71.9,115.5 L80.9,115.5 M575.0,115.5 L566.0,115.5  '/>	<g transform="translate(63.6,120.0)" stroke="none" fill="black" font-family="Arial" font-size="12.00"  text-anchor="end">
		<text><tspan font-family="Arial" > 1</tspan></text>
	</g>
</g>
<g fill="none" color="black" stroke="currentColor" stroke-width="1.00" stroke-linecap="butt" stroke-linejoin="miter">
	<path stroke='black'  d='M71.9,54.1 L80.9,54.1 M575.0,54.1 L566.0,54.1  '/>	<g transform="translate(63.6,58.6)" stroke="none" fill="black" font-family="Arial" font-size="12.00"  text-anchor="end">
		<text><tspan font-family="Arial" > 1.5</tspan></text>
	</g>
</g>
<g fill="none" color="black" stroke="currentColor" stroke-width="1.00" stroke-linecap="butt" stroke-linejoin="miter">
	<path stroke='black'  d='M71.9,422.4 L71.9,413.4 M71.9,54.1 L71.9,63.1  '/>	<g transform="translate(71.9,444.9)" stroke="none" fill="black" font-family="Arial" font-size="12.00"  text-anchor="middle">
		<text><tspan font-family="Arial" > 0</tspan></text>
	</g>
</g>
<g fill="none" color="black" stroke="currentColor" stroke-width="1.00" stroke-linecap="butt" stroke-linejoin="miter">
	<path stroke='black'  d='M143.8,422.4 L143.8,413.4 M143.8,54.1 L143.8,63.1  '/>	<g transform="translate(143.8,444.9)" stroke="none" fill="black" font-family="Arial" font-size="12.00"  text-anchor="middle">
		<text><tspan font-family="Arial" > 2</tspan></text>
	</g>
</g>
<g fill="none" color="black" stroke="currentColor" stroke-width="1.00" stroke-linecap="butt" stroke-linejoin="miter">
	<path stroke='black'  d='M215.6,422.4 L215.6,413.4 M215.6,54.1 L215.6,63.1  '/>	<g transform="translate(215.6,444.9)" stroke="none" fill="black" font-family="Arial" font-size="12.00"  text-anchor="middle">
		<text><tspan font-family="Arial" > 4</tspan></text>
	</g>
</g>
<g fill="none" color="black" stroke="currentColor" stroke-width="1.00" stroke-linecap="butt" stroke-linejoin="miter">
	<path stroke='black'  d='M287.5,422.4 L287.5,413.4 M287.5,54.1 L287.5,63.1  '/>	<g transform="translate(287.5,444.9)" stroke="none" fill="black" font-family="Arial" font-size="12.00"  text-anchor="middle">
		<text><tspan font-family="Arial" > 6</tspan></text>
	</g>
</g>
<g fill="none" color="black" stroke="currentColor" stroke-width="1.00" stroke-linecap="butt" stroke-linejoin="miter">
	<path stroke='black'  d='M359.4,422.4 L359.4,413.4 M359.4,54.1 L359.4,63.1  '/>	<g transform="translate(359.4,444.9)" stroke="none" fill="black" font-family="Arial" font-size="12.00"  text-anchor="middle">
		<text><tspan font-family="Arial" > 8</tspan></text>
	</g>
</g>
<g fill="none" color="black" stroke="currentColor" stroke-width="1.00" stroke-linecap="butt" stroke-linejoin="miter">
	<path stroke='black'  d='M431.3,422.4 L431.3,413.4 M431.3,54.1 L431.3,63.1  '/>	<g transform="translate(431.3,444.9)" stroke="none" fill="black" font-family="Arial" font-size="12.00"  text-anchor="middle">
		<text><tspan font-family="Arial" > 10</tspan></text>
	</g>
</g>
<g fill="none" color="black" stroke="currentColor" stroke-width="1.00" stroke-linecap="butt" stroke-linejoin="miter">
	<path stroke='black'  d='M503.1,422.4 L503.1,413.4 M503.1,54.1 L503.1,63.1  '/>	<g transform="translate(503.1,444.9)" stroke="none" fill="black" font-family="Arial" font-size="12.00"  text-anchor="middle">
		<text><tspan font-family="Arial" > 12</tspan></text>
	</g>
</g>
<g fill="none" color="black" stroke="currentColor" stroke-width="1.00" stroke-linecap="butt" stroke-linejoin="miter">
	<path stroke='black'  d='M575.0,422.4 L575.0,413.4 M575.0,54.1 L575.0,63.1  '/>	<g transform="translate(575.0,444.9)" stroke="none" fill="black" font-family="Arial" font-size="12.00"  text-anchor="middle">
		<text><tspan font-family="Arial" > 14</tspan></text>
	</g>
</g>
<g fill="none" color="black" stroke="currentColor" stroke-width="1.00" stroke-linecap="butt" stroke-linejoin="miter">
</g>
<g fill="none" color="black" stroke="currentColor" stroke-width="1.00" stroke-linecap="butt" stroke-linejoin="miter">
	<path stroke='black'  d='M71.9,54.1 L71.9,422.4 L575.0,422.4 L575.0,54.1 L71.9,54.1 Z  '/></g>
<g fill="none" color="black" stroke="currentColor" stroke-width="1.00" stroke-linecap="butt" stroke-linejoin="miter">
	<g transform="translate(17.6,238.3) rotate(270)" stroke="none" fill="black" font-family="Arial" font-size="12.00"  text-anchor="middle">
		<text><tspan font-family="Arial" >y</tspan></text>
	</g>
</g>
<g fill="none" color="black" stroke="currentColor" stroke-width="1.00" stroke-linecap="butt" stroke-linejoin="miter">
	<g transform="translate(323.4,471.9)" stroke="none" fill="black" font-family="Arial" font-size="12.00"  text-anchor="middle">
		<text><tspan font-family="Arial" >x</tspan></text>
	</g>
</g>
<g fill="none" color="black" stroke="currentColor" stroke-width="1.00" stroke-linecap="butt" stroke-linejoin="miter">
	<g transform="translate(323.4,31.6)" stroke="none" fill="black" font-family="Arial" font-size="12.00"  text-anchor="middle">
		<text><tspan font-family="Arial" >ODE: y''=-y</tspan></text>
	</g>
</g>
	<g id="gnuplot_plot_1" ><title>gnuplot_plot_1</title>
<g fill="none" color="black" stroke="currentColor" stroke-width="1.00" stroke-linecap="butt" stroke-linejoin="miter">
	<path stroke='rgb(148,   0, 211)'  d='M71.9,238.2 L72.3,237.0 L72.9,234.9 L73.8,231.9 L74.9,228.1 L76.1,223.8 L77.5,219.2 L78.9,214.3
		L80.4,209.4 L82.0,204.3 L83.5,199.3 L85.1,194.3 L86.6,189.3 L88.2,184.5 L89.8,179.7 L91.3,175.0
		L92.9,170.5 L94.5,166.1 L96.1,161.8 L97.6,157.6 L99.2,153.7 L100.8,149.8 L102.4,146.2 L103.9,142.7
		L105.5,139.4 L107.1,136.3 L108.7,133.4 L110.2,130.7 L111.8,128.2 L113.4,125.9 L115.0,123.9 L116.6,122.0
		L118.1,120.4 L119.7,119.0 L121.3,117.8 L122.9,116.9 L124.4,116.2 L126.0,115.7 L127.6,115.5 L129.2,115.5
		L130.7,115.8 L132.3,116.2 L133.9,117.0 L135.5,117.9 L137.1,119.1 L138.6,120.5 L140.2,122.1 L141.8,124.0
		L143.4,126.1 L144.9,128.4 L146.5,130.9 L148.1,133.6 L149.7,136.5 L151.2,139.6 L152.8,142.9 L154.4,146.4
		L156.0,150.1 L157.6,153.9 L159.1,157.9 L160.7,162.1 L162.3,166.4 L163.9,170.8 L165.4,175.4 L167.0,180.0
		L168.6,184.8 L170.2,189.7 L171.7,194.7 L173.3,199.8 L174.9,205.0 L176.5,210.2 L178.1,215.5 L179.6,220.8
		L181.2,226.1 L182.8,231.5 L184.4,236.9 L185.9,242.3 L187.5,247.7 L189.1,253.0 L190.7,258.4 L192.2,263.6
		L193.8,268.9 L195.4,274.1 L197.0,279.2 L198.6,284.2 L200.1,289.2 L201.7,294.0 L203.3,298.8 L204.9,303.4
		L206.4,307.9 L208.0,312.3 L209.6,316.5 L211.2,320.6 L212.7,324.5 L214.3,328.3 L215.9,331.8 L217.5,335.2
		L219.1,338.4 L220.6,341.5 L222.2,344.3 L223.8,346.9 L225.4,349.3 L226.9,351.5 L228.5,353.5 L230.1,355.2
		L231.7,356.7 L233.2,358.0 L234.8,359.1 L236.4,359.9 L238.0,360.5 L239.6,360.9 L241.1,361.0 L242.7,360.9
		L244.3,360.6 L245.9,360.0 L247.4,359.2 L249.0,358.1 L250.6,356.8 L252.2,355.3 L253.7,353.6 L255.3,351.6
		L256.9,349.5 L258.5,347.1 L260.0,344.5 L261.6,341.7 L263.2,338.7 L264.8,335.5 L266.4,332.1 L267.9,328.5
		L269.5,324.8 L271.1,320.9 L272.7,316.8 L274.2,312.6 L275.8,308.3 L277.4,303.8 L279.0,299.2 L280.5,294.4
		L282.1,289.6 L283.7,284.6 L285.3,279.6 L286.9,274.5 L288.4,269.3 L290.0,264.1 L291.6,258.8 L293.2,253.4
		L294.7,248.1 L296.3,242.7 L297.9,237.3 L299.5,231.9 L301.0,226.6 L302.6,221.2 L304.2,215.9 L305.8,210.6
		L307.4,205.4 L308.9,200.2 L310.5,195.1 L312.1,190.1 L313.7,185.2 L315.2,180.4 L316.8,175.7 L318.4,171.1
		L320.0,166.7 L321.5,162.4 L323.1,158.2 L324.7,154.2 L326.3,150.4 L327.9,146.7 L329.4,143.2 L331.0,139.9
		L332.6,136.7 L334.2,133.8 L335.7,131.1 L337.3,128.6 L338.9,126.2 L340.5,124.1 L342.0,122.3 L343.6,120.6
		L345.2,119.2 L346.8,118.0 L348.4,117.0 L349.9,116.3 L351.5,115.8 L353.1,115.5 L354.7,115.5 L356.2,115.7
		L357.8,116.1 L359.4,116.8 L361.0,117.7 L362.5,118.9 L364.1,120.3 L365.7,121.9 L367.3,123.7 L368.9,125.7
		L370.4,128.0 L372.0,130.5 L373.6,133.2 L375.2,136.1 L376.7,139.2 L378.3,142.4 L379.9,145.9 L381.5,149.5
		L383.0,153.3 L384.6,157.3 L386.2,161.4 L387.8,165.7 L389.4,170.1 L390.9,174.7 L392.5,179.4 L394.1,184.1
		L395.7,189.0 L397.2,194.0 L398.8,199.1 L400.4,204.2 L402.0,209.4 L403.5,214.7 L405.1,220.0 L406.7,225.3
		L408.3,230.7 L409.8,236.1 L411.4,241.5 L413.0,246.9 L414.6,252.2 L416.2,257.6 L417.7,262.9 L419.3,268.1
		L420.9,273.3 L422.5,278.5 L424.0,283.5 L425.6,288.5 L427.2,293.3 L428.8,298.1 L430.3,302.8 L431.9,307.3
		L433.5,311.7 L435.1,315.9 L436.7,320.0 L438.2,323.9 L439.8,327.7 L441.4,331.3 L443.0,334.8 L444.5,338.0
		L446.1,341.0 L447.7,343.9 L449.3,346.5 L450.8,349.0 L452.4,351.2 L454.0,353.2 L455.6,355.0 L457.2,356.5
		L458.7,357.9 L460.3,359.0 L461.9,359.8 L463.5,360.5 L465.0,360.9 L466.6,361.0 L468.2,361.0 L469.8,360.6
		L471.3,360.1 L472.9,359.3 L474.5,358.3 L476.1,357.1 L477.7,355.6 L479.2,353.9 L480.8,352.0 L482.4,349.8
		L484.0,347.5 L485.5,344.9 L487.1,342.1 L488.7,339.1 L490.3,336.0 L491.8,332.6 L493.4,329.1 L495.0,325.4
		L496.6,321.5 L498.2,317.4 L499.7,313.3 L501.3,308.9 L502.9,304.4 L504.5,299.8 L506.0,295.1 L507.6,290.3
		L509.2,285.4 L510.8,280.3 L512.3,275.2 L513.9,270.1 L515.5,264.8 L517.1,259.5 L518.7,254.2 L520.2,248.9
		L521.8,243.5 L523.4,238.1 L523.5,237.8 M71.9,115.5 L72.3,115.5 L72.9,115.5 L73.8,115.6 L74.9,115.9
		L76.1,116.3 L77.5,117.0 L78.9,117.8 L80.4,118.9 L82.0,120.3 L83.5,121.8 L85.1,123.6 L86.6,125.6
		L88.2,127.9 L89.8,130.3 L91.3,133.0 L92.9,135.9 L94.5,138.9 L96.1,142.2 L97.6,145.7 L99.2,149.3
		L100.8,153.1 L102.4,157.0 L103.9,161.2 L105.5,165.4 L107.1,169.8 L108.7,174.4 L110.2,179.0 L111.8,183.8
		L113.4,188.7 L115.0,193.7 L116.6,198.7 L118.1,203.9 L119.7,209.1 L121.3,214.3 L122.9,219.6 L124.4,225.0
		L126.0,230.4 L127.6,235.7 L129.2,241.1 L130.7,246.5 L132.3,251.9 L133.9,257.2 L135.5,262.5 L137.1,267.8
		L138.6,273.0 L140.2,278.1 L141.8,283.2 L143.4,288.1 L144.9,293.0 L146.5,297.8 L148.1,302.4 L149.7,307.0
		L151.2,311.4 L152.8,315.6 L154.4,319.7 L156.0,323.7 L157.6,327.5 L159.1,331.1 L160.7,334.5 L162.3,337.8
		L163.9,340.8 L165.4,343.7 L167.0,346.3 L168.6,348.8 L170.2,351.0 L171.7,353.1 L173.3,354.9 L174.9,356.4
		L176.5,357.8 L178.1,358.9 L179.6,359.8 L181.2,360.4 L182.8,360.8 L184.4,361.0 L185.9,361.0 L187.5,360.7
		L189.1,360.1 L190.7,359.4 L192.2,358.4 L193.8,357.1 L195.4,355.7 L197.0,354.0 L198.6,352.1 L200.1,350.0
		L201.7,347.6 L203.3,345.1 L204.9,342.3 L206.4,339.3 L208.0,336.2 L209.6,332.8 L211.2,329.3 L212.7,325.6
		L214.3,321.7 L215.9,317.7 L217.5,313.5 L219.1,309.2 L220.6,304.7 L222.2,300.2 L223.8,295.4 L225.4,290.6
		L226.9,285.7 L228.5,280.7 L230.1,275.6 L231.7,270.4 L233.2,265.2 L234.8,259.9 L236.4,254.6 L238.0,249.2
		L239.6,243.9 L241.1,238.5 L242.7,233.1 L244.3,227.7 L245.9,222.3 L247.4,217.0 L249.0,211.7 L250.6,206.5
		L252.2,201.3 L253.7,196.2 L255.3,191.2 L256.9,186.3 L258.5,181.4 L260.0,176.7 L261.6,172.1 L263.2,167.6
		L264.8,163.3 L266.4,159.1 L267.9,155.1 L269.5,151.2 L271.1,147.5 L272.7,143.9 L274.2,140.6 L275.8,137.4
		L277.4,134.4 L279.0,131.6 L280.5,129.1 L282.1,126.7 L283.7,124.6 L285.3,122.6 L286.9,120.9 L288.4,119.5
		L290.0,118.2 L291.6,117.2 L293.2,116.4 L294.7,115.9 L296.3,115.6 L297.9,115.5 L299.5,115.6 L301.0,116.0
		L302.6,116.7 L304.2,117.5 L305.8,118.6 L307.4,120.0 L308.9,121.5 L310.5,123.3 L312.1,125.3 L313.7,127.5
		L315.2,129.9 L316.8,132.6 L318.4,135.4 L320.0,138.5 L321.5,141.7 L323.1,145.1 L324.7,148.7 L326.3,152.5
		L327.9,156.4 L329.4,160.5 L331.0,164.8 L332.6,169.2 L334.2,173.7 L335.7,178.3 L337.3,183.1 L338.9,188.0
		L340.5,192.9 L342.0,198.0 L343.6,203.1 L345.2,208.3 L346.8,213.6 L348.4,218.9 L349.9,224.2 L351.5,229.6
		L353.1,234.9 L354.7,240.3 L356.2,245.7 L357.8,251.1 L359.4,256.4 L361.0,261.7 L362.5,267.0 L364.1,272.2
		L365.7,277.4 L367.3,282.4 L368.9,287.4 L370.4,292.3 L372.0,297.1 L373.6,301.8 L375.2,306.3 L376.7,310.7
		L378.3,315.0 L379.9,319.1 L381.5,323.1 L383.0,326.9 L384.6,330.6 L386.2,334.0 L387.8,337.3 L389.4,340.4
		L390.9,343.3 L392.5,346.0 L394.1,348.5 L395.7,350.7 L397.2,352.8 L398.8,354.6 L400.4,356.2 L402.0,357.6
		L403.5,358.7 L405.1,359.7 L406.7,360.3 L408.3,360.8 L409.8,361.0 L411.4,361.0 L413.0,360.7 L414.6,360.2
		L416.2,359.5 L417.7,358.5 L419.3,357.3 L420.9,355.9 L422.5,354.3 L424.0,352.4 L425.6,350.3 L427.2,348.0
		L428.8,345.5 L430.3,342.7 L431.9,339.8 L433.5,336.7 L435.1,333.3 L436.7,329.9 L438.2,326.2 L439.8,322.3
		L441.4,318.3 L443.0,314.2 L444.5,309.9 L446.1,305.4 L447.7,300.8 L449.3,296.1 L450.8,291.3 L452.4,286.4
		L454.0,281.4 L455.6,276.3 L457.2,271.2 L458.7,266.0 L460.3,260.7 L461.9,255.4 L463.5,250.0 L465.0,244.6
		L466.6,239.2 L468.2,233.9 L469.8,228.5 L471.3,223.1 L472.9,217.8 L474.5,212.5 L476.1,207.3 L477.7,202.1
		L479.2,197.0 L480.8,191.9 L482.4,187.0 L484.0,182.1 L485.5,177.4 L487.1,172.8 L488.7,168.3 L490.3,163.9
		L491.8,159.7 L493.4,155.6 L495.0,151.7 L496.6,148.0 L498.2,144.4 L499.7,141.0 L501.3,137.8 L502.9,134.8
		L504.5,132.0 L506.0,129.4 L507.6,127.0 L509.2,124.9 L510.8,122.9 L512.3,121.2 L513.9,119.7 L515.5,118.4
		L517.1,117.3 L518.7,116.5 L520.2,115.9 L521.8,115.6 L523.4,115.5 L523.5,115.5  '/></g>
	</g>
	<g id="gnuplot_plot_2" ><title>gnuplot_plot_2</title>
<g fill="none" color="black" stroke="currentColor" stroke-width="1.00" stroke-linecap="butt" stroke-linejoin="miter">
</g>
	</g>
<g fill="none" color="#FFFFFF" stroke="rgb(  0, 158, 115)" stroke-width="2.00" stroke-linecap="butt" stroke-linejoin="miter">
</g>
<g fill="none" color="black" stroke="currentColor" stroke-width="2.00" stroke-linecap="butt" stroke-linejoin="miter">
</g>
<g fill="none" color="black" stroke="black" stroke-width="1.00" stroke-linecap="butt" stroke-linejoin="miter">
</g>
<g fill="none" color="black" stroke="currentColor" stroke-width="1.00" stroke-linecap="butt" stroke-linejoin="miter">
	<path stroke='black'  d='M71.9,54.1 L71.9,422.4 L575.0,422.4 L575.0,54.1 L71.9,54.1 Z  '/></g>
<g fill="none" color="black" stroke="currentColor" stroke-width="1.00" stroke-linecap="butt" stroke-linejoin="miter">
</g>
</g>
</svg>

