\relax 
\providecommand\hyper@newdestlabel[2]{}
\providecommand\HyperFirstAtBeginDocument{\AtBeginDocument}
\HyperFirstAtBeginDocument{\ifx\hyper@anchor\@undefined
\global\let\oldcontentsline\contentsline
\gdef\contentsline#1#2#3#4{\oldcontentsline{#1}{#2}{#3}}
\global\let\oldnewlabel\newlabel
\gdef\newlabel#1#2{\newlabelxx{#1}#2}
\gdef\newlabelxx#1#2#3#4#5#6{\oldnewlabel{#1}{{#2}{#3}}}
\AtEndDocument{\ifx\hyper@anchor\@undefined
\let\contentsline\oldcontentsline
\let\newlabel\oldnewlabel
\fi}
\fi}
\global\let\hyper@last\relax 
\gdef\HyperFirstAtBeginDocument#1{#1}
\providecommand\HyField@AuxAddToFields[1]{}
\providecommand\HyField@AuxAddToCoFields[2]{}
\citation{wikiroots}
\citation{GSL}
\@writefile{toc}{\contentsline {section}{\numberline {1}Theory}{1}{section.1}}
\newlabel{eq:hx}{{5}{1}{Theory}{equation.1.5}{}}
\@writefile{toc}{\contentsline {section}{\numberline {2}Implementation}{1}{section.2}}
\@writefile{lof}{\contentsline {figure}{\numberline {1}{\ignorespaces The arctangent function implemented by root-finding on equation \ref  {eq:hx}, and the gnuplot arctangent function.}}{1}{figure.1}}
\newlabel{fig:arctan}{{1}{1}{The arctangent function implemented by root-finding on equation \ref {eq:hx}, and the gnuplot arctangent function}{figure.1}{}}
\bibcite{wikiroots}{1}
\bibcite{GSL}{2}
