Jacobi diagonalisation with cyclic sweeps
-----------------------------------------
n=4
Random symmetric matrix A=
[[ 0.95603  0.94783  0.1131   0.25462]
 [ 0.94783  1.671    2.20791  2.67892]
 [ 0.1131   2.20791  0.92441  3.02972]
 [ 0.25462  2.67892  3.02972  2.42721]]
sweeps=4
A after diagonalization: 
[[  9.56034e-01   1.72183e-09   0.00000e+00  -1.38530e-12]
 [  9.47827e-01   1.67100e+00  -1.54464e-09   8.85900e-16]
 [  1.13103e-01   2.20791e+00   9.24409e-01  -1.31355e-18]
 [  2.54616e-01   2.67892e+00   3.02972e+00   2.42721e+00]]
The actual eigenvalues using numpy are: 
[-1.46066 -0.8052   1.11413  7.13038]
The calculated eigevalues are:  
[-1.46066 -0.8052   1.11413  7.13038]
VTAV = 
[[ -1.46066e+00   1.72183e-09   0.00000e+00  -1.38389e-12]
 [  1.72183e-09  -8.05203e-01  -1.54464e-09   1.72085e-15]
 [ -2.77556e-17  -1.54464e-09   1.11413e+00   3.33067e-16]
 [ -1.38378e-12   1.77636e-15   4.44089e-16   7.13038e+00]]
