-15 	 0.278217 	 -0.0691266
-14.985 	 0.281832 	 -0.0528726
-14.97 	 0.284496 	 -0.0364405
-14.955 	 0.286202 	 -0.0198856
-14.94 	 0.286945 	 -0.00326379
-14.925 	 0.286724 	 0.013369
-14.91 	 0.285541 	 0.0299569
-14.895 	 0.2834 	 0.0464443
-14.88 	 0.280309 	 0.0627762
-14.865 	 0.27628 	 0.0788979
-14.85 	 0.271328 	 0.0947558
-14.835 	 0.265469 	 0.110297
-14.82 	 0.258724 	 0.125471
-14.805 	 0.251117 	 0.140226
-14.79 	 0.242673 	 0.154514
-14.775 	 0.233422 	 0.168288
-14.76 	 0.223395 	 0.181503
-14.745 	 0.212627 	 0.194115
-14.73 	 0.201153 	 0.206083
-14.715 	 0.189013 	 0.217369
-14.7 	 0.176247 	 0.227935
-14.685 	 0.162899 	 0.237748
-14.67 	 0.149012 	 0.246775
-14.655 	 0.134634 	 0.254988
-14.64 	 0.119812 	 0.26236
-14.625 	 0.104595 	 0.268868
-14.61 	 0.0890341 	 0.274492
-14.595 	 0.0731806 	 0.279214
-14.58 	 0.0570869 	 0.283019
-14.565 	 0.040806 	 0.285895
-14.55 	 0.0243913 	 0.287836
-14.535 	 0.00789686 	 0.288834
-14.52 	 -0.00862345 	 0.288888
-14.505 	 -0.0251156 	 0.287998
-14.49 	 -0.0415258 	 0.286169
-14.475 	 -0.0578007 	 0.283406
-14.46 	 -0.0738874 	 0.279722
-14.445 	 -0.0897337 	 0.275127
-14.43 	 -0.105289 	 0.269638
-14.415 	 -0.120502 	 0.263274
-14.4 	 -0.135324 	 0.256057
-14.385 	 -0.149708 	 0.24801
-14.37 	 -0.163608 	 0.23916
-14.355 	 -0.176978 	 0.229538
-14.34 	 -0.189778 	 0.219174
-14.325 	 -0.201965 	 0.208103
-14.31 	 -0.213501 	 0.196362
-14.295 	 -0.22435 	 0.183989
-14.28 	 -0.234478 	 0.171024
-14.265 	 -0.243853 	 0.15751
-14.25 	 -0.252445 	 0.14349
-14.235 	 -0.260228 	 0.12901
-14.22 	 -0.267178 	 0.114117
-14.205 	 -0.273273 	 0.0988596
-14.19 	 -0.278495 	 0.0832859
-14.175 	 -0.282828 	 0.0674463
-14.16 	 -0.286259 	 0.0513917
-14.145 	 -0.288778 	 0.0351734
-14.13 	 -0.290379 	 0.0188432
-14.115 	 -0.291057 	 0.00245302
-14.1 	 -0.29081 	 -0.0139449
-14.085 	 -0.289641 	 -0.0302986
-14.07 	 -0.287555 	 -0.0465564
-14.055 	 -0.284558 	 -0.0626668
-14.04 	 -0.280662 	 -0.078579
-14.025 	 -0.275879 	 -0.0942432
-14.01 	 -0.270226 	 -0.10961
-13.995 	 -0.263722 	 -0.124631
-13.98 	 -0.256387 	 -0.13926
-13.965 	 -0.248246 	 -0.153452
-13.95 	 -0.239325 	 -0.167161
-13.935 	 -0.229654 	 -0.180345
-13.92 	 -0.219262 	 -0.192965
-13.905 	 -0.208184 	 -0.20498
-13.89 	 -0.196454 	 -0.216354
-13.875 	 -0.184111 	 -0.227052
-13.86 	 -0.171193 	 -0.237041
-13.845 	 -0.157742 	 -0.246291
-13.83 	 -0.143799 	 -0.254775
-13.815 	 -0.129408 	 -0.262465
-13.8 	 -0.114616 	 -0.26934
-13.785 	 -0.0994679 	 -0.275379
-13.77 	 -0.0840113 	 -0.280564
-13.755 	 -0.0682945 	 -0.284881
-13.74 	 -0.0523663 	 -0.288315
-13.725 	 -0.0362763 	 -0.290859
-13.71 	 -0.0200743 	 -0.292504
-13.695 	 -0.00381035 	 -0.293248
-13.68 	 0.0124653 	 -0.293088
-13.665 	 0.0287027 	 -0.292026
-13.65 	 0.0448518 	 -0.290067
-13.635 	 0.0608632 	 -0.287217
-13.62 	 0.0766879 	 -0.283486
-13.605 	 0.0922777 	 -0.278886
-13.59 	 0.107585 	 -0.273433
-13.575 	 0.122564 	 -0.267144
-13.56 	 0.137168 	 -0.26004
-13.545 	 0.151354 	 -0.252142
-13.53 	 0.165079 	 -0.243476
-13.515 	 0.178301 	 -0.234069
-13.5 	 0.190981 	 -0.22395
-13.485 	 0.203082 	 -0.213151
-13.47 	 0.214566 	 -0.201706
-13.455 	 0.2254 	 -0.18965
-13.44 	 0.235552 	 -0.177019
-13.425 	 0.244992 	 -0.163853
-13.41 	 0.253692 	 -0.150193
-13.395 	 0.261627 	 -0.136079
-13.38 	 0.268773 	 -0.121556
-13.365 	 0.275111 	 -0.106666
-13.35 	 0.280621 	 -0.0914561
-13.335 	 0.285289 	 -0.0759713
-13.32 	 0.289101 	 -0.0602587
-13.305 	 0.292047 	 -0.0443654
-13.29 	 0.294119 	 -0.0283394
-13.275 	 0.295311 	 -0.0122286
-13.26 	 0.295622 	 0.00391865
-13.245 	 0.295051 	 0.0200543
-13.23 	 0.2936 	 0.0361301
-13.215 	 0.291277 	 0.0520985
-13.2 	 0.288087 	 0.067912
-13.185 	 0.284041 	 0.0835238
-13.17 	 0.279154 	 0.098888
-13.155 	 0.273439 	 0.113959
-13.14 	 0.266915 	 0.128693
-13.125 	 0.259602 	 0.143047
-13.11 	 0.251523 	 0.156978
-13.095 	 0.242702 	 0.170446
-13.08 	 0.233166 	 0.183413
-13.065 	 0.222944 	 0.195839
-13.05 	 0.212067 	 0.20769
-13.035 	 0.200568 	 0.218932
-13.02 	 0.18848 	 0.229531
-13.005 	 0.17584 	 0.239458
-12.99 	 0.162686 	 0.248685
-12.975 	 0.149056 	 0.257185
-12.96 	 0.134991 	 0.264935
-12.945 	 0.120533 	 0.271912
-12.93 	 0.105724 	 0.278097
-12.915 	 0.0906072 	 0.283474
-12.9 	 0.0752273 	 0.288026
-12.885 	 0.059629 	 0.291744
-12.87 	 0.0438579 	 0.294615
-12.855 	 0.0279598 	 0.296634
-12.84 	 0.0119809 	 0.297794
-12.825 	 -0.00403267 	 0.298095
-12.81 	 -0.0200346 	 0.297536
-12.795 	 -0.0359788 	 0.296119
-12.78 	 -0.0518195 	 0.29385
-12.765 	 -0.0675112 	 0.290737
-12.75 	 -0.083009 	 0.286788
-12.735 	 -0.0982688 	 0.282017
-12.72 	 -0.113247 	 0.276438
-12.705 	 -0.127901 	 0.270068
-12.69 	 -0.14219 	 0.262926
-12.675 	 -0.156073 	 0.255034
-12.66 	 -0.169511 	 0.246415
-12.645 	 -0.182466 	 0.237093
-12.63 	 -0.194902 	 0.227098
-12.615 	 -0.206784 	 0.216457
-12.6 	 -0.21808 	 0.205202
-12.585 	 -0.228758 	 0.193365
-12.57 	 -0.238788 	 0.180981
-12.555 	 -0.248142 	 0.168085
-12.54 	 -0.256796 	 0.154714
-12.525 	 -0.264726 	 0.140907
-12.51 	 -0.271909 	 0.126703
-12.495 	 -0.278328 	 0.112143
-12.48 	 -0.283964 	 0.097267
-12.465 	 -0.288803 	 0.0821181
-12.45 	 -0.292832 	 0.066739
-12.435 	 -0.296042 	 0.0511729
-12.42 	 -0.298423 	 0.0354637
-12.405 	 -0.29997 	 0.0196554
-12.39 	 -0.30068 	 0.00379226
-12.375 	 -0.300552 	 -0.0120815
-12.36 	 -0.299588 	 -0.0279216
-12.345 	 -0.297791 	 -0.0436841
-12.33 	 -0.295166 	 -0.0593252
-12.315 	 -0.291723 	 -0.0748019
-12.3 	 -0.287472 	 -0.0900713
-12.285 	 -0.282426 	 -0.105092
-12.27 	 -0.276598 	 -0.119821
-12.255 	 -0.270008 	 -0.13422
-12.24 	 -0.262673 	 -0.14825
-12.225 	 -0.254615 	 -0.16187
-12.21 	 -0.245857 	 -0.175046
-12.195 	 -0.236423 	 -0.187741
-12.18 	 -0.226341 	 -0.199921
-12.165 	 -0.215639 	 -0.211554
-12.15 	 -0.204346 	 -0.222607
-12.135 	 -0.192495 	 -0.233052
-12.12 	 -0.180119 	 -0.242861
-12.105 	 -0.167252 	 -0.252007
-12.09 	 -0.153929 	 -0.260468
-12.075 	 -0.140187 	 -0.26822
-12.06 	 -0.126065 	 -0.275243
-12.045 	 -0.111601 	 -0.28152
-12.03 	 -0.0968338 	 -0.287034
-12.015 	 -0.0818051 	 -0.291771
-12 	 -0.0665552 	 -0.29572
-11.985 	 -0.0511256 	 -0.29887
-11.97 	 -0.0355582 	 -0.301215
-11.955 	 -0.0198951 	 -0.302749
-11.94 	 -0.00417843 	 -0.303468
-11.925 	 0.0115495 	 -0.303372
-11.91 	 0.0272464 	 -0.302463
-11.895 	 0.0428703 	 -0.300743
-11.88 	 0.0583795 	 -0.298219
-11.865 	 0.0737328 	 -0.294897
-11.85 	 0.0888892 	 -0.290788
-11.835 	 0.103809 	 -0.285905
-11.82 	 0.118452 	 -0.28026
-11.805 	 0.13278 	 -0.27387
-11.79 	 0.146756 	 -0.266752
-11.775 	 0.160342 	 -0.258928
-11.76 	 0.173504 	 -0.250417
-11.745 	 0.186206 	 -0.241244
-11.73 	 0.198417 	 -0.231433
-11.715 	 0.210104 	 -0.221012
-11.7 	 0.221238 	 -0.210008
-11.685 	 0.231789 	 -0.198452
-11.67 	 0.241731 	 -0.186374
-11.655 	 0.251038 	 -0.173807
-11.64 	 0.259688 	 -0.160784
-11.625 	 0.267657 	 -0.14734
-11.61 	 0.274926 	 -0.13351
-11.595 	 0.281477 	 -0.119332
-11.58 	 0.287295 	 -0.104843
-11.565 	 0.292363 	 -0.0900807
-11.55 	 0.296672 	 -0.075084
-11.535 	 0.300209 	 -0.0598922
-11.52 	 0.302967 	 -0.0445449
-11.505 	 0.30494 	 -0.0290822
-11.49 	 0.306124 	 -0.0135442
-11.475 	 0.306517 	 0.00202874
-11.46 	 0.306119 	 0.0175965
-11.445 	 0.304931 	 0.0331189
-11.43 	 0.302959 	 0.048556
-11.415 	 0.300207 	 0.0638684
-11.4 	 0.296685 	 0.0790167
-11.385 	 0.292401 	 0.0939624
-11.37 	 0.287369 	 0.108667
-11.355 	 0.281602 	 0.123095
-11.34 	 0.275115 	 0.137207
-11.325 	 0.267927 	 0.15097
-11.31 	 0.260056 	 0.164348
-11.295 	 0.251523 	 0.177308
-11.28 	 0.242352 	 0.189817
-11.265 	 0.232565 	 0.201845
-11.25 	 0.222189 	 0.213362
-11.235 	 0.211251 	 0.224338
-11.22 	 0.199779 	 0.234747
-11.205 	 0.187803 	 0.244564
-11.19 	 0.175353 	 0.253765
-11.175 	 0.162462 	 0.262327
-11.16 	 0.149162 	 0.270229
-11.145 	 0.135488 	 0.277453
-11.13 	 0.121474 	 0.283981
-11.115 	 0.107156 	 0.289798
-11.1 	 0.0925704 	 0.294891
-11.085 	 0.0777534 	 0.299247
-11.07 	 0.0627425 	 0.302857
-11.055 	 0.0475754 	 0.305713
-11.04 	 0.0322899 	 0.307809
-11.025 	 0.0169243 	 0.30914
-11.01 	 0.00151662 	 0.309705
-10.995 	 -0.0138948 	 0.309502
-10.98 	 -0.0292718 	 0.308534
-10.965 	 -0.0445766 	 0.306804
-10.95 	 -0.0597714 	 0.304317
-10.935 	 -0.074819 	 0.301081
-10.92 	 -0.0896826 	 0.297103
-10.905 	 -0.104326 	 0.292397
-10.89 	 -0.118713 	 0.286972
-10.875 	 -0.13281 	 0.280845
-10.86 	 -0.146581 	 0.274031
-10.845 	 -0.159995 	 0.266547
-10.83 	 -0.173018 	 0.258413
-10.815 	 -0.18562 	 0.249649
-10.8 	 -0.19777 	 0.240278
-10.785 	 -0.20944 	 0.230324
-10.77 	 -0.220601 	 0.21981
-10.755 	 -0.231228 	 0.208764
-10.74 	 -0.241296 	 0.197213
-10.725 	 -0.250781 	 0.185185
-10.71 	 -0.25966 	 0.172711
-10.695 	 -0.267914 	 0.15982
-10.68 	 -0.275524 	 0.146545
-10.665 	 -0.282471 	 0.132918
-10.65 	 -0.288741 	 0.118972
-10.635 	 -0.294319 	 0.104741
-10.62 	 -0.299193 	 0.0902589
-10.605 	 -0.303352 	 0.0755616
-10.59 	 -0.306788 	 0.060684
-10.575 	 -0.309493 	 0.0456618
-10.56 	 -0.311461 	 0.030531
-10.545 	 -0.31269 	 0.0153276
-10.53 	 -0.313176 	 8.79109e-05
-10.515 	 -0.312921 	 -0.015152
-10.5 	 -0.311926 	 -0.0303561
-10.485 	 -0.310194 	 -0.0454885
-10.47 	 -0.30773 	 -0.0605137
-10.455 	 -0.304542 	 -0.0753963
-10.44 	 -0.300637 	 -0.0901015
-10.425 	 -0.296026 	 -0.104595
-10.41 	 -0.290721 	 -0.118844
-10.395 	 -0.284735 	 -0.132814
-10.38 	 -0.278084 	 -0.146473
-10.365 	 -0.270783 	 -0.159791
-10.35 	 -0.26285 	 -0.172736
-10.335 	 -0.254306 	 -0.185279
-10.32 	 -0.24517 	 -0.197391
-10.305 	 -0.235465 	 -0.209044
-10.29 	 -0.225215 	 -0.220214
-10.275 	 -0.214443 	 -0.230873
-10.26 	 -0.203175 	 -0.240999
-10.245 	 -0.191438 	 -0.250568
-10.23 	 -0.179261 	 -0.25956
-10.215 	 -0.16667 	 -0.267955
-10.2 	 -0.153697 	 -0.275734
-10.185 	 -0.140371 	 -0.282881
-10.17 	 -0.126723 	 -0.289379
-10.155 	 -0.112785 	 -0.295215
-10.14 	 -0.0985901 	 -0.300377
-10.125 	 -0.0841699 	 -0.304853
-10.11 	 -0.069558 	 -0.308636
-10.095 	 -0.0547879 	 -0.311716
-10.08 	 -0.0398934 	 -0.314088
-10.065 	 -0.0249084 	 -0.315749
-10.05 	 -0.009867 	 -0.316694
-10.035 	 0.00519672 	 -0.316923
-10.02 	 0.0202487 	 -0.316437
-10.005 	 0.0352551 	 -0.315238
-9.99 	 0.0501821 	 -0.313329
-9.975 	 0.0649964 	 -0.310716
-9.96 	 0.0796648 	 -0.307405
-9.945 	 0.0941547 	 -0.303406
-9.93 	 0.108434 	 -0.298728
-9.915 	 0.122471 	 -0.293383
-9.9 	 0.136235 	 -0.287384
-9.885 	 0.149696 	 -0.280744
-9.87 	 0.162823 	 -0.27348
-9.855 	 0.175589 	 -0.265609
-9.84 	 0.187966 	 -0.257149
-9.825 	 0.199927 	 -0.24812
-9.81 	 0.211446 	 -0.238542
-9.795 	 0.222498 	 -0.228438
-9.78 	 0.23306 	 -0.217831
-9.765 	 0.24311 	 -0.206744
-9.75 	 0.252625 	 -0.195203
-9.735 	 0.261586 	 -0.183234
-9.72 	 0.269974 	 -0.170864
-9.705 	 0.277772 	 -0.15812
-9.69 	 0.284964 	 -0.145031
-9.675 	 0.291534 	 -0.131626
-9.66 	 0.29747 	 -0.117934
-9.645 	 0.302759 	 -0.103986
-9.63 	 0.307392 	 -0.0898126
-9.615 	 0.311358 	 -0.0754443
-9.6 	 0.314652 	 -0.0609129
-9.585 	 0.317265 	 -0.04625
-9.57 	 0.319195 	 -0.0314872
-9.555 	 0.320437 	 -0.0166567
-9.54 	 0.320991 	 -0.00179042
-9.525 	 0.320855 	 0.0130797
-9.51 	 0.320032 	 0.0279219
-9.495 	 0.318525 	 0.0427043
-9.48 	 0.316337 	 0.0573955
-9.465 	 0.313475 	 0.0719644
-9.45 	 0.309945 	 0.08638
-9.435 	 0.305756 	 0.100612
-9.42 	 0.300918 	 0.11463
-9.405 	 0.295442 	 0.128406
-9.39 	 0.289342 	 0.14191
-9.375 	 0.28263 	 0.155114
-9.36 	 0.275322 	 0.167991
-9.345 	 0.267434 	 0.180514
-9.33 	 0.258985 	 0.192658
-9.315 	 0.249991 	 0.204397
-9.3 	 0.240474 	 0.215708
-9.285 	 0.230453 	 0.226568
-9.27 	 0.219952 	 0.236955
-9.255 	 0.208991 	 0.246847
-9.24 	 0.197596 	 0.256226
-9.225 	 0.185789 	 0.265072
-9.21 	 0.173597 	 0.273367
-9.195 	 0.161046 	 0.281097
-9.18 	 0.148161 	 0.288245
-9.165 	 0.13497 	 0.294798
-9.15 	 0.121501 	 0.300742
-9.135 	 0.107782 	 0.306068
-9.12 	 0.0938418 	 0.310765
-9.105 	 0.0797087 	 0.314825
-9.09 	 0.0654123 	 0.318239
-9.075 	 0.0509821 	 0.321003
-9.06 	 0.0364479 	 0.323111
-9.045 	 0.0218393 	 0.324561
-9.03 	 0.00718631 	 0.32535
-9.015 	 -0.00748129 	 0.325479
-9 	 -0.0221337 	 0.324947
-8.985 	 -0.0367414 	 0.323758
-8.97 	 -0.0512747 	 0.321914
-8.955 	 -0.0657046 	 0.31942
-8.94 	 -0.0800022 	 0.316283
-8.925 	 -0.0941389 	 0.31251
-8.91 	 -0.108087 	 0.30811
-8.895 	 -0.121818 	 0.303092
-8.88 	 -0.135305 	 0.297467
-8.865 	 -0.148522 	 0.291248
-8.85 	 -0.161443 	 0.284449
-8.835 	 -0.174042 	 0.277083
-8.82 	 -0.186295 	 0.269166
-8.805 	 -0.198179 	 0.260715
-8.79 	 -0.209671 	 0.251748
-8.775 	 -0.220747 	 0.242283
-8.76 	 -0.231388 	 0.232339
-8.745 	 -0.241573 	 0.221938
-8.73 	 -0.251283 	 0.2111
-8.715 	 -0.260499 	 0.199848
-8.7 	 -0.269205 	 0.188204
-8.685 	 -0.277383 	 0.176191
-8.67 	 -0.28502 	 0.163834
-8.655 	 -0.292101 	 0.151158
-8.64 	 -0.298613 	 0.138187
-8.625 	 -0.304544 	 0.124948
-8.61 	 -0.309885 	 0.111466
-8.595 	 -0.314625 	 0.0977682
-8.58 	 -0.318758 	 0.0838815
-8.565 	 -0.322274 	 0.0698329
-8.55 	 -0.32517 	 0.0556496
-8.535 	 -0.327441 	 0.0413594
-8.52 	 -0.329083 	 0.0269897
-8.505 	 -0.330094 	 0.0125683
-8.49 	 -0.330473 	 -0.00187719
-8.475 	 -0.330221 	 -0.0163191
-8.46 	 -0.32934 	 -0.0307299
-8.445 	 -0.327832 	 -0.0450822
-8.43 	 -0.325701 	 -0.0593489
-8.415 	 -0.322952 	 -0.073503
-8.4 	 -0.319592 	 -0.087518
-8.385 	 -0.315628 	 -0.101368
-8.37 	 -0.311069 	 -0.115026
-8.355 	 -0.305924 	 -0.128468
-8.34 	 -0.300204 	 -0.141668
-8.325 	 -0.29392 	 -0.154603
-8.31 	 -0.287087 	 -0.167248
-8.295 	 -0.279716 	 -0.17958
-8.28 	 -0.271824 	 -0.191578
-8.265 	 -0.263425 	 -0.203218
-8.25 	 -0.254536 	 -0.214481
-8.235 	 -0.245175 	 -0.225345
-8.22 	 -0.23536 	 -0.235792
-8.205 	 -0.22511 	 -0.245803
-8.19 	 -0.214444 	 -0.25536
-8.175 	 -0.203383 	 -0.264447
-8.16 	 -0.191947 	 -0.273048
-8.145 	 -0.18016 	 -0.281147
-8.13 	 -0.168042 	 -0.288731
-8.115 	 -0.155617 	 -0.295787
-8.1 	 -0.142908 	 -0.302303
-8.085 	 -0.129939 	 -0.308269
-8.07 	 -0.116733 	 -0.313673
-8.055 	 -0.103315 	 -0.318508
-8.04 	 -0.08971 	 -0.322766
-8.025 	 -0.0759427 	 -0.32644
-8.01 	 -0.0620383 	 -0.329525
-7.995 	 -0.0480221 	 -0.332016
-7.98 	 -0.0339196 	 -0.333909
-7.965 	 -0.0197561 	 -0.335204
-7.95 	 -0.00555721 	 -0.335898
-7.935 	 0.00865162 	 -0.33599
-7.92 	 0.022845 	 -0.335484
-7.905 	 0.0369977 	 -0.334379
-7.89 	 0.0510846 	 -0.33268
-7.875 	 0.0650809 	 -0.33039
-7.86 	 0.0789618 	 -0.327515
-7.845 	 0.0927031 	 -0.324061
-7.83 	 0.106281 	 -0.320035
-7.815 	 0.119671 	 -0.315445
-7.8 	 0.132852 	 -0.310301
-7.785 	 0.145799 	 -0.304612
-7.77 	 0.15849 	 -0.298389
-7.755 	 0.170905 	 -0.291645
-7.74 	 0.183021 	 -0.284392
-7.725 	 0.194819 	 -0.276644
-7.71 	 0.206278 	 -0.268416
-7.695 	 0.21738 	 -0.259721
-7.68 	 0.228105 	 -0.250577
-7.665 	 0.238436 	 -0.241
-7.65 	 0.248356 	 -0.231008
-7.635 	 0.257849 	 -0.220618
-7.62 	 0.266898 	 -0.209849
-7.605 	 0.27549 	 -0.19872
-7.59 	 0.283611 	 -0.187251
-7.575 	 0.291248 	 -0.175463
-7.56 	 0.298388 	 -0.163375
-7.545 	 0.30502 	 -0.15101
-7.53 	 0.311135 	 -0.138388
-7.515 	 0.316723 	 -0.125532
-7.5 	 0.321776 	 -0.112463
-7.485 	 0.326285 	 -0.0992053
-7.47 	 0.330245 	 -0.0857801
-7.455 	 0.33365 	 -0.0722108
-7.44 	 0.336496 	 -0.0585203
-7.425 	 0.338778 	 -0.0447318
-7.41 	 0.340495 	 -0.0308687
-7.395 	 0.341644 	 -0.016954
-7.38 	 0.342224 	 -0.00301117
-7.365 	 0.342236 	 0.0109367
-7.35 	 0.341681 	 0.0248664
-7.335 	 0.340562 	 0.0387551
-7.32 	 0.33888 	 0.0525798
-7.305 	 0.33664 	 0.0663179
-7.29 	 0.333847 	 0.079947
-7.275 	 0.330507 	 0.093445
-7.26 	 0.326625 	 0.10679
-7.245 	 0.32221 	 0.119961
-7.23 	 0.31727 	 0.132936
-7.215 	 0.311814 	 0.145695
-7.2 	 0.305852 	 0.158217
-7.185 	 0.299394 	 0.170484
-7.17 	 0.292452 	 0.182474
-7.155 	 0.285039 	 0.194171
-7.14 	 0.277166 	 0.205554
-7.125 	 0.268849 	 0.216608
-7.11 	 0.260101 	 0.227314
-7.095 	 0.250936 	 0.237657
-7.08 	 0.241371 	 0.247621
-7.065 	 0.231422 	 0.25719
-7.05 	 0.221105 	 0.26635
-7.035 	 0.210437 	 0.275088
-7.02 	 0.199436 	 0.28339
-7.005 	 0.18812 	 0.291245
-6.99 	 0.176507 	 0.298641
-6.975 	 0.164617 	 0.305568
-6.96 	 0.152469 	 0.312014
-6.945 	 0.140082 	 0.317973
-6.93 	 0.127476 	 0.323434
-6.915 	 0.114671 	 0.328391
-6.9 	 0.101688 	 0.332838
-6.885 	 0.088547 	 0.336768
-6.87 	 0.0752689 	 0.340176
-6.855 	 0.0618745 	 0.343058
-6.84 	 0.0483846 	 0.345411
-6.825 	 0.0348202 	 0.347233
-6.81 	 0.0212024 	 0.348522
-6.795 	 0.0075521 	 0.349276
-6.78 	 -0.00610976 	 0.349497
-6.765 	 -0.0197623 	 0.349185
-6.75 	 -0.0333848 	 0.348341
-6.735 	 -0.0469566 	 0.346968
-6.72 	 -0.0604572 	 0.34507
-6.705 	 -0.0738665 	 0.34265
-6.69 	 -0.0871643 	 0.339713
-6.675 	 -0.100331 	 0.336264
-6.66 	 -0.113347 	 0.332311
-6.645 	 -0.126193 	 0.32786
-6.63 	 -0.138851 	 0.322918
-6.615 	 -0.151301 	 0.317495
-6.6 	 -0.163526 	 0.3116
-6.585 	 -0.175509 	 0.305242
-6.57 	 -0.187231 	 0.298431
-6.555 	 -0.198677 	 0.29118
-6.54 	 -0.20983 	 0.283499
-6.525 	 -0.220674 	 0.275401
-6.51 	 -0.231194 	 0.266899
-6.495 	 -0.241376 	 0.258006
-6.48 	 -0.251204 	 0.248736
-6.465 	 -0.260667 	 0.239103
-6.45 	 -0.269751 	 0.229122
-6.435 	 -0.278443 	 0.218809
-6.42 	 -0.286732 	 0.208179
-6.405 	 -0.294607 	 0.197249
-6.39 	 -0.302057 	 0.186034
-6.375 	 -0.309073 	 0.174552
-6.36 	 -0.315646 	 0.162819
-6.345 	 -0.321767 	 0.150854
-6.33 	 -0.327429 	 0.138673
-6.315 	 -0.332625 	 0.126295
-6.3 	 -0.337348 	 0.113737
-6.285 	 -0.341593 	 0.101018
-6.27 	 -0.345355 	 0.0881562
-6.255 	 -0.348629 	 0.0751701
-6.24 	 -0.351414 	 0.0620781
-6.225 	 -0.353704 	 0.048899
-6.21 	 -0.3555 	 0.0356514
-6.195 	 -0.356799 	 0.022354
-6.18 	 -0.3576 	 0.00902537
-6.165 	 -0.357905 	 -0.00431577
-6.15 	 -0.357713 	 -0.0176509
-6.135 	 -0.357026 	 -0.0309617
-6.12 	 -0.355846 	 -0.0442297
-6.105 	 -0.354177 	 -0.0574368
-6.09 	 -0.35202 	 -0.0705651
-6.075 	 -0.349382 	 -0.0835966
-6.06 	 -0.346266 	 -0.096514
-6.045 	 -0.342678 	 -0.1093
-6.03 	 -0.338624 	 -0.121937
-6.015 	 -0.334111 	 -0.134409
-6 	 -0.329145 	 -0.146698
-5.985 	 -0.323735 	 -0.15879
-5.97 	 -0.31789 	 -0.170668
-5.955 	 -0.311617 	 -0.182317
-5.94 	 -0.304927 	 -0.193722
-5.925 	 -0.297829 	 -0.204867
-5.91 	 -0.290334 	 -0.21574
-5.895 	 -0.282454 	 -0.226326
-5.88 	 -0.274198 	 -0.236611
-5.865 	 -0.26558 	 -0.246584
-5.85 	 -0.256612 	 -0.256231
-5.835 	 -0.247306 	 -0.265541
-5.82 	 -0.237675 	 -0.274503
-5.805 	 -0.227733 	 -0.283105
-5.79 	 -0.217493 	 -0.291337
-5.775 	 -0.20697 	 -0.29919
-5.76 	 -0.196179 	 -0.306654
-5.745 	 -0.185133 	 -0.31372
-5.73 	 -0.173848 	 -0.320382
-5.715 	 -0.162338 	 -0.32663
-5.7 	 -0.15062 	 -0.332458
-5.685 	 -0.138709 	 -0.33786
-5.67 	 -0.12662 	 -0.34283
-5.655 	 -0.11437 	 -0.347363
-5.64 	 -0.101974 	 -0.351453
-5.625 	 -0.0894494 	 -0.355098
-5.61 	 -0.0768111 	 -0.358293
-5.595 	 -0.0640759 	 -0.361036
-5.58 	 -0.05126 	 -0.363325
-5.565 	 -0.0383797 	 -0.365157
-5.55 	 -0.0254514 	 -0.366533
-5.535 	 -0.0124913 	 -0.36745
-5.52 	 0.000484365 	 -0.36791
-5.505 	 0.0134594 	 -0.367914
-5.49 	 0.0264178 	 -0.367461
-5.475 	 0.0393436 	 -0.366555
-5.46 	 0.0522209 	 -0.365197
-5.445 	 0.0650341 	 -0.363391
-5.43 	 0.0777677 	 -0.361139
-5.415 	 0.0904062 	 -0.358446
-5.4 	 0.102935 	 -0.355317
-5.385 	 0.115338 	 -0.351756
-5.37 	 0.127602 	 -0.347769
-5.355 	 0.139711 	 -0.343361
-5.34 	 0.151652 	 -0.33854
-5.325 	 0.163411 	 -0.333313
-5.31 	 0.174974 	 -0.327685
-5.295 	 0.186329 	 -0.321667
-5.28 	 0.197461 	 -0.315265
-5.265 	 0.208359 	 -0.308489
-5.25 	 0.219009 	 -0.301347
-5.235 	 0.229402 	 -0.29385
-5.22 	 0.239524 	 -0.286006
-5.205 	 0.249364 	 -0.277826
-5.19 	 0.258913 	 -0.269321
-5.175 	 0.26816 	 -0.260502
-5.16 	 0.277094 	 -0.251379
-5.145 	 0.285706 	 -0.241965
-5.13 	 0.293988 	 -0.23227
-5.115 	 0.301931 	 -0.222308
-5.1 	 0.309526 	 -0.212089
-5.085 	 0.316766 	 -0.201627
-5.07 	 0.323644 	 -0.190935
-5.055 	 0.330152 	 -0.180024
-5.04 	 0.336285 	 -0.168909
-5.025 	 0.342037 	 -0.157603
-5.01 	 0.347402 	 -0.146118
-4.995 	 0.352375 	 -0.134469
-4.98 	 0.356952 	 -0.122668
-4.965 	 0.36113 	 -0.11073
-4.95 	 0.364904 	 -0.0986681
-4.935 	 0.368272 	 -0.0864965
-4.92 	 0.371231 	 -0.0742289
-4.905 	 0.373779 	 -0.061879
-4.89 	 0.375914 	 -0.0494609
-4.875 	 0.377636 	 -0.0369884
-4.86 	 0.378944 	 -0.0244752
-4.845 	 0.379837 	 -0.0119353
-4.83 	 0.380317 	 0.000617567
-4.815 	 0.380383 	 0.0131698
-4.8 	 0.380037 	 0.0257078
-4.785 	 0.37928 	 0.038218
-4.77 	 0.378116 	 0.0506871
-4.755 	 0.376545 	 0.0631018
-4.74 	 0.374572 	 0.075449
-4.725 	 0.372199 	 0.0877158
-4.71 	 0.369431 	 0.0998893
-4.695 	 0.366271 	 0.111957
-4.68 	 0.362724 	 0.123906
-4.665 	 0.358796 	 0.135725
-4.65 	 0.35449 	 0.147402
-4.635 	 0.349814 	 0.158924
-4.62 	 0.344773 	 0.170281
-4.605 	 0.339374 	 0.18146
-4.59 	 0.333623 	 0.192452
-4.575 	 0.327528 	 0.203245
-4.56 	 0.321096 	 0.213829
-4.545 	 0.314334 	 0.224193
-4.53 	 0.30725 	 0.234328
-4.515 	 0.299854 	 0.244224
-4.5 	 0.292153 	 0.253873
-4.485 	 0.284156 	 0.263264
-4.47 	 0.275872 	 0.272389
-4.455 	 0.267311 	 0.281241
-4.44 	 0.258482 	 0.289811
-4.425 	 0.249395 	 0.298091
-4.41 	 0.24006 	 0.306075
-4.395 	 0.230486 	 0.313754
-4.38 	 0.220685 	 0.321124
-4.365 	 0.210666 	 0.328177
-4.35 	 0.20044 	 0.334908
-4.335 	 0.190018 	 0.341311
-4.32 	 0.17941 	 0.347381
-4.305 	 0.168629 	 0.353114
-4.29 	 0.157683 	 0.358505
-4.275 	 0.146586 	 0.363549
-4.26 	 0.135348 	 0.368244
-4.245 	 0.12398 	 0.372586
-4.23 	 0.112493 	 0.376572
-4.215 	 0.1009 	 0.3802
-4.2 	 0.0892108 	 0.383467
-4.185 	 0.0774373 	 0.386372
-4.17 	 0.0655909 	 0.388913
-4.155 	 0.0536829 	 0.39109
-4.14 	 0.0417248 	 0.3929
-4.125 	 0.0297278 	 0.394345
-4.11 	 0.0177032 	 0.395424
-4.095 	 0.00566219 	 0.396137
-4.08 	 -0.00638401 	 0.396485
-4.065 	 -0.0184244 	 0.396469
-4.05 	 -0.0304479 	 0.396091
-4.035 	 -0.0424436 	 0.395351
-4.02 	 -0.0544009 	 0.394253
-4.005 	 -0.0663089 	 0.392798
-3.99 	 -0.0781573 	 0.39099
-3.975 	 -0.0899354 	 0.38883
-3.96 	 -0.101633 	 0.386323
-3.945 	 -0.11324 	 0.383471
-3.93 	 -0.124747 	 0.380279
-3.915 	 -0.136143 	 0.376751
-3.9 	 -0.14742 	 0.372891
-3.885 	 -0.158567 	 0.368703
-3.87 	 -0.169576 	 0.364194
-3.855 	 -0.180437 	 0.359367
-3.84 	 -0.191141 	 0.354229
-3.825 	 -0.20168 	 0.348784
-3.81 	 -0.212046 	 0.34304
-3.795 	 -0.22223 	 0.337001
-3.78 	 -0.232224 	 0.330675
-3.765 	 -0.242021 	 0.324067
-3.75 	 -0.251613 	 0.317185
-3.735 	 -0.260992 	 0.310036
-3.72 	 -0.270152 	 0.302626
-3.705 	 -0.279086 	 0.294962
-3.69 	 -0.287788 	 0.287053
-3.675 	 -0.29625 	 0.278905
-3.66 	 -0.304468 	 0.270527
-3.645 	 -0.312435 	 0.261926
-3.63 	 -0.320146 	 0.25311
-3.615 	 -0.327595 	 0.244087
-3.6 	 -0.334777 	 0.234866
-3.585 	 -0.341689 	 0.225455
-3.57 	 -0.348325 	 0.215862
-3.555 	 -0.354681 	 0.206095
-3.54 	 -0.360754 	 0.196164
-3.525 	 -0.366539 	 0.186076
-3.51 	 -0.372034 	 0.175841
-3.495 	 -0.377235 	 0.165467
-3.48 	 -0.382139 	 0.154963
-3.465 	 -0.386744 	 0.144337
-3.45 	 -0.391047 	 0.133599
-3.435 	 -0.395047 	 0.122757
-3.42 	 -0.398742 	 0.111821
-3.405 	 -0.40213 	 0.100798
-3.39 	 -0.405209 	 0.0896981
-3.375 	 -0.40798 	 0.0785298
-3.36 	 -0.410441 	 0.0673018
-3.345 	 -0.412592 	 0.0560229
-3.33 	 -0.414432 	 0.0447019
-3.315 	 -0.415962 	 0.0333474
-3.3 	 -0.417181 	 0.021968
-3.285 	 -0.418091 	 0.0105723
-3.27 	 -0.418691 	 -0.000831249
-3.255 	 -0.418984 	 -0.0122342
-3.24 	 -0.41897 	 -0.0236282
-3.225 	 -0.41865 	 -0.0350049
-3.21 	 -0.418027 	 -0.0463563
-3.195 	 -0.417102 	 -0.0576742
-3.18 	 -0.415876 	 -0.0689506
-3.165 	 -0.414354 	 -0.0801777
-3.15 	 -0.412536 	 -0.0913478
-3.135 	 -0.410426 	 -0.102453
-3.12 	 -0.408027 	 -0.113486
-3.105 	 -0.405341 	 -0.124439
-3.09 	 -0.402372 	 -0.135306
-3.075 	 -0.399123 	 -0.146078
-3.06 	 -0.395598 	 -0.15675
-3.045 	 -0.3918 	 -0.167313
-3.03 	 -0.387735 	 -0.177762
-3.015 	 -0.383404 	 -0.18809
-3 	 -0.378814 	 -0.19829
-2.985 	 -0.373968 	 -0.208356
-2.97 	 -0.368871 	 -0.218282
-2.955 	 -0.363528 	 -0.228063
-2.94 	 -0.357943 	 -0.237691
-2.925 	 -0.352121 	 -0.247163
-2.91 	 -0.346067 	 -0.256472
-2.895 	 -0.339787 	 -0.265613
-2.88 	 -0.333285 	 -0.274581
-2.865 	 -0.326568 	 -0.283371
-2.85 	 -0.31964 	 -0.291979
-2.835 	 -0.312507 	 -0.300399
-2.82 	 -0.305174 	 -0.308628
-2.805 	 -0.297648 	 -0.31666
-2.79 	 -0.289934 	 -0.324494
-2.775 	 -0.282039 	 -0.332123
-2.76 	 -0.273967 	 -0.339545
-2.745 	 -0.265725 	 -0.346756
-2.73 	 -0.257319 	 -0.353753
-2.715 	 -0.248754 	 -0.360533
-2.7 	 -0.240038 	 -0.367092
-2.685 	 -0.231176 	 -0.373429
-2.67 	 -0.222174 	 -0.37954
-2.655 	 -0.213039 	 -0.385422
-2.64 	 -0.203777 	 -0.391075
-2.625 	 -0.194394 	 -0.396495
-2.61 	 -0.184895 	 -0.401682
-2.595 	 -0.175288 	 -0.406632
-2.58 	 -0.165579 	 -0.411345
-2.565 	 -0.155774 	 -0.415819
-2.55 	 -0.145879 	 -0.420053
-2.535 	 -0.1359 	 -0.424047
-2.52 	 -0.125844 	 -0.427798
-2.505 	 -0.115716 	 -0.431307
-2.49 	 -0.105523 	 -0.434573
-2.475 	 -0.0952707 	 -0.437595
-2.46 	 -0.0849655 	 -0.440374
-2.445 	 -0.0746133 	 -0.442908
-2.43 	 -0.0642201 	 -0.4452
-2.415 	 -0.0537917 	 -0.447247
-2.4 	 -0.0433341 	 -0.449052
-2.385 	 -0.0328531 	 -0.450615
-2.37 	 -0.0223545 	 -0.451935
-2.355 	 -0.0118439 	 -0.453015
-2.34 	 -0.0013271 	 -0.453854
-2.325 	 0.00919044 	 -0.454455
-2.31 	 0.0197032 	 -0.454818
-2.295 	 0.0302057 	 -0.454944
-2.28 	 0.0406926 	 -0.454836
-2.265 	 0.0511587 	 -0.454494
-2.25 	 0.0615987 	 -0.453921
-2.235 	 0.0720075 	 -0.453118
-2.22 	 0.0823801 	 -0.452087
-2.205 	 0.0927115 	 -0.45083
-2.19 	 0.102997 	 -0.449349
-2.175 	 0.113232 	 -0.447647
-2.16 	 0.123411 	 -0.445726
-2.145 	 0.13353 	 -0.443589
-2.13 	 0.143585 	 -0.441237
-2.115 	 0.153571 	 -0.438674
-2.1 	 0.163485 	 -0.435902
-2.085 	 0.17332 	 -0.432925
-2.07 	 0.183075 	 -0.429744
-2.055 	 0.192744 	 -0.426363
-2.04 	 0.202324 	 -0.422784
-2.025 	 0.211811 	 -0.419012
-2.01 	 0.221202 	 -0.415049
-1.995 	 0.230493 	 -0.410898
-1.98 	 0.23968 	 -0.406563
-1.965 	 0.248761 	 -0.402047
-1.95 	 0.257731 	 -0.397353
-1.935 	 0.266589 	 -0.392484
-1.92 	 0.27533 	 -0.387445
-1.905 	 0.283953 	 -0.382238
-1.89 	 0.292454 	 -0.376867
-1.875 	 0.30083 	 -0.371337
-1.86 	 0.30908 	 -0.365649
-1.845 	 0.3172 	 -0.359809
-1.83 	 0.325188 	 -0.353819
-1.815 	 0.333043 	 -0.347683
-1.8 	 0.340762 	 -0.341406
-1.785 	 0.348342 	 -0.33499
-1.77 	 0.355783 	 -0.32844
-1.755 	 0.363082 	 -0.321759
-1.74 	 0.370238 	 -0.31495
-1.725 	 0.377248 	 -0.308019
-1.71 	 0.384113 	 -0.300968
-1.695 	 0.390829 	 -0.293801
-1.68 	 0.397397 	 -0.286522
-1.665 	 0.403814 	 -0.279135
-1.65 	 0.41008 	 -0.271643
-1.635 	 0.416194 	 -0.264051
-1.62 	 0.422155 	 -0.256361
-1.605 	 0.427962 	 -0.248578
-1.59 	 0.433614 	 -0.240705
-1.575 	 0.439111 	 -0.232746
-1.56 	 0.444453 	 -0.224704
-1.545 	 0.449638 	 -0.216584
-1.53 	 0.454668 	 -0.208388
-1.515 	 0.45954 	 -0.200121
-1.5 	 0.464257 	 -0.191785
-1.485 	 0.468816 	 -0.183384
-1.47 	 0.473219 	 -0.174923
-1.455 	 0.477465 	 -0.166403
-1.44 	 0.481555 	 -0.157829
-1.425 	 0.485489 	 -0.149204
-1.41 	 0.489268 	 -0.140531
-1.395 	 0.492891 	 -0.131813
-1.38 	 0.496359 	 -0.123054
-1.365 	 0.499673 	 -0.114257
-1.35 	 0.502834 	 -0.105425
-1.335 	 0.505842 	 -0.0965607
-1.32 	 0.508699 	 -0.0876674
-1.305 	 0.511404 	 -0.078748
-1.29 	 0.513959 	 -0.0698056
-1.275 	 0.516364 	 -0.0608428
-1.26 	 0.518622 	 -0.0518626
-1.245 	 0.520733 	 -0.0428677
-1.23 	 0.522698 	 -0.0338608
-1.215 	 0.524518 	 -0.0248445
-1.2 	 0.526194 	 -0.0158214
-1.185 	 0.527729 	 -0.00679399
-1.17 	 0.529123 	 0.0022352
-1.155 	 0.530378 	 0.0112638
-1.14 	 0.531495 	 0.0202895
-1.125 	 0.532475 	 0.02931
-1.11 	 0.533321 	 0.0383231
-1.095 	 0.534033 	 0.0473266
-1.08 	 0.534614 	 0.0563184
-1.065 	 0.535065 	 0.0652966
-1.05 	 0.535388 	 0.0742591
-1.035 	 0.535585 	 0.0832041
-1.02 	 0.535656 	 0.0921297
-1.005 	 0.535605 	 0.101034
-0.99 	 0.535433 	 0.109916
-0.975 	 0.535141 	 0.118773
-0.96 	 0.534732 	 0.127604
-0.945 	 0.534207 	 0.136408
-0.93 	 0.533569 	 0.145182
-0.915 	 0.532819 	 0.153926
-0.9 	 0.53196 	 0.162639
-0.885 	 0.530993 	 0.171319
-0.87 	 0.52992 	 0.179964
-0.855 	 0.528743 	 0.188574
-0.84 	 0.527465 	 0.197148
-0.825 	 0.526087 	 0.205685
-0.81 	 0.524611 	 0.214183
-0.795 	 0.52304 	 0.222643
-0.78 	 0.521375 	 0.231063
-0.765 	 0.519618 	 0.239442
-0.75 	 0.517773 	 0.24778
-0.735 	 0.515839 	 0.256076
-0.72 	 0.513821 	 0.26433
-0.705 	 0.511719 	 0.272541
-0.69 	 0.509536 	 0.280708
-0.675 	 0.507274 	 0.288833
-0.66 	 0.504935 	 0.296913
-0.645 	 0.502521 	 0.304949
-0.63 	 0.500034 	 0.312941
-0.615 	 0.497476 	 0.320889
-0.6 	 0.49485 	 0.328792
-0.585 	 0.492156 	 0.336651
-0.57 	 0.489398 	 0.344465
-0.555 	 0.486577 	 0.352236
-0.54 	 0.483695 	 0.359962
-0.525 	 0.480754 	 0.367645
-0.51 	 0.477757 	 0.375284
-0.495 	 0.474705 	 0.38288
-0.48 	 0.4716 	 0.390433
-0.465 	 0.468444 	 0.397945
-0.45 	 0.465239 	 0.405415
-0.435 	 0.461987 	 0.412843
-0.42 	 0.458689 	 0.420232
-0.405 	 0.455348 	 0.42758
-0.39 	 0.451966 	 0.43489
-0.375 	 0.448544 	 0.442161
-0.36 	 0.445085 	 0.449395
-0.345 	 0.441589 	 0.456593
-0.33 	 0.438059 	 0.463755
-0.315 	 0.434496 	 0.470883
-0.3 	 0.430903 	 0.477978
-0.285 	 0.427281 	 0.48504
-0.27 	 0.423631 	 0.492071
-0.255 	 0.419955 	 0.499073
-0.24 	 0.416256 	 0.506045
-0.225 	 0.412533 	 0.512991
-0.21 	 0.40879 	 0.51991
-0.195 	 0.405028 	 0.526805
-0.18 	 0.401248 	 0.533676
-0.165 	 0.397452 	 0.540526
-0.15 	 0.39364 	 0.547356
-0.135 	 0.389816 	 0.554168
-0.12 	 0.38598 	 0.560963
-0.105 	 0.382133 	 0.567742
-0.09 	 0.378277 	 0.574508
-0.075 	 0.374414 	 0.581263
-0.06 	 0.370544 	 0.588008
-0.045 	 0.366669 	 0.594744
-0.03 	 0.362791 	 0.601475
-0.015 	 0.35891 	 0.608202
