<?xml version="1.0" encoding="utf-8"  standalone="no"?>
<!DOCTYPE svg PUBLIC "-//W3C//DTD SVG 1.1//EN"
 "http://www.w3.org/Graphics/SVG/1.1/DTD/svg11.dtd">
<svg 
 width="600" height="480"
 viewBox="0 0 600 480"
 xmlns="http://www.w3.org/2000/svg"
 xmlns:xlink="http://www.w3.org/1999/xlink"
>

<title>Gnuplot</title>
<desc>Produced by GNUPLOT 5.0 patchlevel 3 </desc>

<g id="gnuplot_canvas">

<rect x="0" y="0" width="600" height="480" fill="#ffffff"/>
<defs>

	<circle id='gpDot' r='0.5' stroke-width='0.5'/>
	<path id='gpPt0' stroke-width='0.222' stroke='currentColor' d='M-1,0 h2 M0,-1 v2'/>
	<path id='gpPt1' stroke-width='0.222' stroke='currentColor' d='M-1,-1 L1,1 M1,-1 L-1,1'/>
	<path id='gpPt2' stroke-width='0.222' stroke='currentColor' d='M-1,0 L1,0 M0,-1 L0,1 M-1,-1 L1,1 M-1,1 L1,-1'/>
	<rect id='gpPt3' stroke-width='0.222' stroke='currentColor' x='-1' y='-1' width='2' height='2'/>
	<rect id='gpPt4' stroke-width='0.222' stroke='currentColor' fill='currentColor' x='-1' y='-1' width='2' height='2'/>
	<circle id='gpPt5' stroke-width='0.222' stroke='currentColor' cx='0' cy='0' r='1'/>
	<use xlink:href='#gpPt5' id='gpPt6' fill='currentColor' stroke='none'/>
	<path id='gpPt7' stroke-width='0.222' stroke='currentColor' d='M0,-1.33 L-1.33,0.67 L1.33,0.67 z'/>
	<use xlink:href='#gpPt7' id='gpPt8' fill='currentColor' stroke='none'/>
	<use xlink:href='#gpPt7' id='gpPt9' stroke='currentColor' transform='rotate(180)'/>
	<use xlink:href='#gpPt9' id='gpPt10' fill='currentColor' stroke='none'/>
	<use xlink:href='#gpPt3' id='gpPt11' stroke='currentColor' transform='rotate(45)'/>
	<use xlink:href='#gpPt11' id='gpPt12' fill='currentColor' stroke='none'/>
	<path id='gpPt13' stroke-width='0.222' stroke='currentColor' d='M0,1.330 L1.265,0.411 L0.782,-1.067 L-0.782,-1.076 L-1.265,0.411 z'/>
	<use xlink:href='#gpPt13' id='gpPt14' fill='currentColor' stroke='none'/>
	<filter id='textbox' filterUnits='objectBoundingBox' x='0' y='0' height='1' width='1'>
	  <feFlood flood-color='#FFFFFF' flood-opacity='1' result='bgnd'/>
	  <feComposite in='SourceGraphic' in2='bgnd' operator='atop'/>
	</filter>
	<filter id='greybox' filterUnits='objectBoundingBox' x='0' y='0' height='1' width='1'>
	  <feFlood flood-color='lightgrey' flood-opacity='1' result='grey'/>
	  <feComposite in='SourceGraphic' in2='grey' operator='atop'/>
	</filter>
</defs>
<g fill="none" color="#FFFFFF" stroke="currentColor" stroke-width="1.00" stroke-linecap="butt" stroke-linejoin="miter">
</g>
<g fill="none" color="black" stroke="currentColor" stroke-width="1.00" stroke-linecap="butt" stroke-linejoin="miter">
	<path stroke='black'  d='M55.3,422.4 L64.3,422.4 M575.0,422.4 L566.0,422.4  '/>	<g transform="translate(47.0,426.9)" stroke="none" fill="black" font-family="Arial" font-size="12.00"  text-anchor="end">
		<text><tspan font-family="Arial" >-1</tspan></text>
	</g>
</g>
<g fill="none" color="black" stroke="currentColor" stroke-width="1.00" stroke-linecap="butt" stroke-linejoin="miter">
	<path stroke='black'  d='M55.3,369.8 L64.3,369.8 M575.0,369.8 L566.0,369.8  '/>	<g transform="translate(47.0,374.3)" stroke="none" fill="black" font-family="Arial" font-size="12.00"  text-anchor="end">
		<text><tspan font-family="Arial" > 0</tspan></text>
	</g>
</g>
<g fill="none" color="black" stroke="currentColor" stroke-width="1.00" stroke-linecap="butt" stroke-linejoin="miter">
	<path stroke='black'  d='M55.3,317.2 L64.3,317.2 M575.0,317.2 L566.0,317.2  '/>	<g transform="translate(47.0,321.7)" stroke="none" fill="black" font-family="Arial" font-size="12.00"  text-anchor="end">
		<text><tspan font-family="Arial" > 1</tspan></text>
	</g>
</g>
<g fill="none" color="black" stroke="currentColor" stroke-width="1.00" stroke-linecap="butt" stroke-linejoin="miter">
	<path stroke='black'  d='M55.3,264.6 L64.3,264.6 M575.0,264.6 L566.0,264.6  '/>	<g transform="translate(47.0,269.1)" stroke="none" fill="black" font-family="Arial" font-size="12.00"  text-anchor="end">
		<text><tspan font-family="Arial" > 2</tspan></text>
	</g>
</g>
<g fill="none" color="black" stroke="currentColor" stroke-width="1.00" stroke-linecap="butt" stroke-linejoin="miter">
	<path stroke='black'  d='M55.3,211.9 L64.3,211.9 M575.0,211.9 L566.0,211.9  '/>	<g transform="translate(47.0,216.4)" stroke="none" fill="black" font-family="Arial" font-size="12.00"  text-anchor="end">
		<text><tspan font-family="Arial" > 3</tspan></text>
	</g>
</g>
<g fill="none" color="black" stroke="currentColor" stroke-width="1.00" stroke-linecap="butt" stroke-linejoin="miter">
	<path stroke='black'  d='M55.3,159.3 L64.3,159.3 M575.0,159.3 L566.0,159.3  '/>	<g transform="translate(47.0,163.8)" stroke="none" fill="black" font-family="Arial" font-size="12.00"  text-anchor="end">
		<text><tspan font-family="Arial" > 4</tspan></text>
	</g>
</g>
<g fill="none" color="black" stroke="currentColor" stroke-width="1.00" stroke-linecap="butt" stroke-linejoin="miter">
	<path stroke='black'  d='M55.3,106.7 L64.3,106.7 M575.0,106.7 L566.0,106.7  '/>	<g transform="translate(47.0,111.2)" stroke="none" fill="black" font-family="Arial" font-size="12.00"  text-anchor="end">
		<text><tspan font-family="Arial" > 5</tspan></text>
	</g>
</g>
<g fill="none" color="black" stroke="currentColor" stroke-width="1.00" stroke-linecap="butt" stroke-linejoin="miter">
	<path stroke='black'  d='M55.3,54.1 L64.3,54.1 M575.0,54.1 L566.0,54.1  '/>	<g transform="translate(47.0,58.6)" stroke="none" fill="black" font-family="Arial" font-size="12.00"  text-anchor="end">
		<text><tspan font-family="Arial" > 6</tspan></text>
	</g>
</g>
<g fill="none" color="black" stroke="currentColor" stroke-width="1.00" stroke-linecap="butt" stroke-linejoin="miter">
	<path stroke='black'  d='M55.3,422.4 L55.3,413.4 M55.3,54.1 L55.3,63.1  '/>	<g transform="translate(55.3,444.9)" stroke="none" fill="black" font-family="Arial" font-size="12.00"  text-anchor="middle">
		<text><tspan font-family="Arial" >-1</tspan></text>
	</g>
</g>
<g fill="none" color="black" stroke="currentColor" stroke-width="1.00" stroke-linecap="butt" stroke-linejoin="miter">
	<path stroke='black'  d='M107.3,422.4 L107.3,413.4 M107.3,54.1 L107.3,63.1  '/>	<g transform="translate(107.3,444.9)" stroke="none" fill="black" font-family="Arial" font-size="12.00"  text-anchor="middle">
		<text><tspan font-family="Arial" >-0.8</tspan></text>
	</g>
</g>
<g fill="none" color="black" stroke="currentColor" stroke-width="1.00" stroke-linecap="butt" stroke-linejoin="miter">
	<path stroke='black'  d='M159.2,422.4 L159.2,413.4 M159.2,54.1 L159.2,63.1  '/>	<g transform="translate(159.2,444.9)" stroke="none" fill="black" font-family="Arial" font-size="12.00"  text-anchor="middle">
		<text><tspan font-family="Arial" >-0.6</tspan></text>
	</g>
</g>
<g fill="none" color="black" stroke="currentColor" stroke-width="1.00" stroke-linecap="butt" stroke-linejoin="miter">
	<path stroke='black'  d='M211.2,422.4 L211.2,413.4 M211.2,54.1 L211.2,63.1  '/>	<g transform="translate(211.2,444.9)" stroke="none" fill="black" font-family="Arial" font-size="12.00"  text-anchor="middle">
		<text><tspan font-family="Arial" >-0.4</tspan></text>
	</g>
</g>
<g fill="none" color="black" stroke="currentColor" stroke-width="1.00" stroke-linecap="butt" stroke-linejoin="miter">
	<path stroke='black'  d='M263.2,422.4 L263.2,413.4 M263.2,54.1 L263.2,63.1  '/>	<g transform="translate(263.2,444.9)" stroke="none" fill="black" font-family="Arial" font-size="12.00"  text-anchor="middle">
		<text><tspan font-family="Arial" >-0.2</tspan></text>
	</g>
</g>
<g fill="none" color="black" stroke="currentColor" stroke-width="1.00" stroke-linecap="butt" stroke-linejoin="miter">
	<path stroke='black'  d='M315.2,422.4 L315.2,413.4 M315.2,54.1 L315.2,63.1  '/>	<g transform="translate(315.2,444.9)" stroke="none" fill="black" font-family="Arial" font-size="12.00"  text-anchor="middle">
		<text><tspan font-family="Arial" > 0</tspan></text>
	</g>
</g>
<g fill="none" color="black" stroke="currentColor" stroke-width="1.00" stroke-linecap="butt" stroke-linejoin="miter">
	<path stroke='black'  d='M367.1,422.4 L367.1,413.4 M367.1,54.1 L367.1,63.1  '/>	<g transform="translate(367.1,444.9)" stroke="none" fill="black" font-family="Arial" font-size="12.00"  text-anchor="middle">
		<text><tspan font-family="Arial" > 0.2</tspan></text>
	</g>
</g>
<g fill="none" color="black" stroke="currentColor" stroke-width="1.00" stroke-linecap="butt" stroke-linejoin="miter">
	<path stroke='black'  d='M419.1,422.4 L419.1,413.4 M419.1,54.1 L419.1,63.1  '/>	<g transform="translate(419.1,444.9)" stroke="none" fill="black" font-family="Arial" font-size="12.00"  text-anchor="middle">
		<text><tspan font-family="Arial" > 0.4</tspan></text>
	</g>
</g>
<g fill="none" color="black" stroke="currentColor" stroke-width="1.00" stroke-linecap="butt" stroke-linejoin="miter">
	<path stroke='black'  d='M471.1,422.4 L471.1,413.4 M471.1,54.1 L471.1,63.1  '/>	<g transform="translate(471.1,444.9)" stroke="none" fill="black" font-family="Arial" font-size="12.00"  text-anchor="middle">
		<text><tspan font-family="Arial" > 0.6</tspan></text>
	</g>
</g>
<g fill="none" color="black" stroke="currentColor" stroke-width="1.00" stroke-linecap="butt" stroke-linejoin="miter">
	<path stroke='black'  d='M523.0,422.4 L523.0,413.4 M523.0,54.1 L523.0,63.1  '/>	<g transform="translate(523.0,444.9)" stroke="none" fill="black" font-family="Arial" font-size="12.00"  text-anchor="middle">
		<text><tspan font-family="Arial" > 0.8</tspan></text>
	</g>
</g>
<g fill="none" color="black" stroke="currentColor" stroke-width="1.00" stroke-linecap="butt" stroke-linejoin="miter">
	<path stroke='black'  d='M575.0,422.4 L575.0,413.4 M575.0,54.1 L575.0,63.1  '/>	<g transform="translate(575.0,444.9)" stroke="none" fill="black" font-family="Arial" font-size="12.00"  text-anchor="middle">
		<text><tspan font-family="Arial" > 1</tspan></text>
	</g>
</g>
<g fill="none" color="black" stroke="currentColor" stroke-width="1.00" stroke-linecap="butt" stroke-linejoin="miter">
</g>
<g fill="none" color="black" stroke="currentColor" stroke-width="1.00" stroke-linecap="butt" stroke-linejoin="miter">
	<path stroke='black'  d='M55.3,54.1 L55.3,422.4 L575.0,422.4 L575.0,54.1 L55.3,54.1 Z  '/></g>
<g fill="none" color="black" stroke="currentColor" stroke-width="1.00" stroke-linecap="butt" stroke-linejoin="miter">
	<g transform="translate(17.6,238.3) rotate(270)" stroke="none" fill="black" font-family="Arial" font-size="12.00"  text-anchor="middle">
		<text><tspan font-family="Arial" >y</tspan></text>
	</g>
</g>
<g fill="none" color="black" stroke="currentColor" stroke-width="1.00" stroke-linecap="butt" stroke-linejoin="miter">
	<g transform="translate(315.1,471.9)" stroke="none" fill="black" font-family="Arial" font-size="12.00"  text-anchor="middle">
		<text><tspan font-family="Arial" >x</tspan></text>
	</g>
</g>
<g fill="none" color="black" stroke="currentColor" stroke-width="1.00" stroke-linecap="butt" stroke-linejoin="miter">
	<g transform="translate(315.1,31.6)" stroke="none" fill="black" font-family="Arial" font-size="12.00"  text-anchor="middle">
		<text><tspan font-family="Arial" >Least squares fit of data generated from f(z) = 1 + 2*z + 3*z*z</tspan></text>
	</g>
</g>
	<g id="gnuplot_plot_1" ><title>data</title>
<g fill="none" color="black" stroke="currentColor" stroke-width="1.00" stroke-linecap="butt" stroke-linejoin="miter">
	<g transform="translate(507.9,354.9)" stroke="none" fill="black" font-family="Arial" font-size="12.00"  text-anchor="end">
		<text><tspan font-family="Arial" >data</tspan></text>
	</g>
</g>
<g fill="none" color="black" stroke="currentColor" stroke-width="1.00" stroke-linecap="butt" stroke-linejoin="miter">
	<path stroke='rgb(148,   0, 211)'  d='M516.2,350.4 L558.4,350.4 M516.2,345.9 L516.2,354.9 M558.4,345.9 L558.4,354.9 M81.3,330.1 L81.3,223.4
		M76.8,330.1 L85.8,330.1 M76.8,223.4 L85.8,223.4 M133.3,375.3 L133.3,277.4 M128.8,375.3 L137.8,375.3
		M128.8,277.4 L137.8,277.4 M185.2,346.1 L185.2,304.9 M180.7,346.1 L189.7,346.1 M180.7,304.9 L189.7,304.9
		M237.2,328.5 L237.2,312.8 M232.7,328.5 L241.7,328.5 M232.7,312.8 L241.7,312.8 M289.2,345.4 L289.2,262.0
		M284.7,345.4 L293.7,345.4 M284.7,262.0 L293.7,262.0 M341.1,336.1 L341.1,325.0 M336.6,336.1 L345.6,336.1
		M336.6,325.0 L345.6,325.0 M393.1,319.5 L393.1,240.5 M388.6,319.5 L397.6,319.5 M388.6,240.5 L397.6,240.5
		M445.1,225.8 L445.1,184.6 M440.6,225.8 L449.6,225.8 M440.6,184.6 L449.6,184.6 M497.0,188.2 L497.0,164.2
		M492.5,188.2 L501.5,188.2 M492.5,164.2 L501.5,164.2 M549.0,131.4 L549.0,56.7 M544.5,131.4 L553.5,131.4
		M544.5,56.7 L553.5,56.7  '/>	<use xlink:href='#gpPt0' transform='translate(81.3,276.8) scale(4.50)' color='rgb(148,   0, 211)'/>
	<use xlink:href='#gpPt0' transform='translate(133.3,326.4) scale(4.50)' color='rgb(148,   0, 211)'/>
	<use xlink:href='#gpPt0' transform='translate(185.2,325.5) scale(4.50)' color='rgb(148,   0, 211)'/>
	<use xlink:href='#gpPt0' transform='translate(237.2,320.6) scale(4.50)' color='rgb(148,   0, 211)'/>
	<use xlink:href='#gpPt0' transform='translate(289.2,303.7) scale(4.50)' color='rgb(148,   0, 211)'/>
	<use xlink:href='#gpPt0' transform='translate(341.1,330.6) scale(4.50)' color='rgb(148,   0, 211)'/>
	<use xlink:href='#gpPt0' transform='translate(393.1,280.0) scale(4.50)' color='rgb(148,   0, 211)'/>
	<use xlink:href='#gpPt0' transform='translate(445.1,205.2) scale(4.50)' color='rgb(148,   0, 211)'/>
	<use xlink:href='#gpPt0' transform='translate(497.0,176.2) scale(4.50)' color='rgb(148,   0, 211)'/>
	<use xlink:href='#gpPt0' transform='translate(549.0,94.0) scale(4.50)' color='rgb(148,   0, 211)'/>
	<use xlink:href='#gpPt0' transform='translate(537.3,350.4) scale(4.50)' color='rgb(148,   0, 211)'/>
</g>
	</g>
	<g id="gnuplot_plot_2" ><title>Fc(x)</title>
<g fill="none" color="black" stroke="currentColor" stroke-width="1.00" stroke-linecap="butt" stroke-linejoin="miter">
	<g transform="translate(507.9,372.9)" stroke="none" fill="black" font-family="Arial" font-size="12.00"  text-anchor="end">
		<text><tspan font-family="Arial" >F</tspan><tspan font-family="Arial"  font-size="9.6" dy="3.60px">c</tspan><tspan font-family="Arial"  font-size="12.0" dy="-3.60px">(x)</tspan></text>
	</g>
</g>
<g fill="none" color="black" stroke="currentColor" stroke-width="1.00" stroke-linecap="butt" stroke-linejoin="miter">
	<path stroke='rgb(  0, 158, 115)'  d='M516.2,368.4 L558.4,368.4 M78.7,214.5 L83.9,221.0 L89.1,227.3 L94.3,233.5 L99.5,239.5 L104.7,245.3
		L109.9,250.9 L115.1,256.3 L120.3,261.6 L125.5,266.7 L130.7,271.6 L135.9,276.3 L141.1,280.9 L146.2,285.3
		L151.4,289.5 L156.6,293.5 L161.8,297.4 L167.0,301.1 L172.2,304.6 L177.4,307.9 L182.6,311.1 L187.8,314.0
		L193.0,316.8 L198.2,319.5 L203.4,321.9 L208.6,324.2 L213.8,326.3 L219.0,328.3 L224.2,330.0 L229.4,331.6
		L234.6,333.0 L239.8,334.2 L245.0,335.3 L250.2,336.1 L255.4,336.8 L260.6,337.4 L265.8,337.7 L271.0,337.9
		L276.2,337.9 L281.4,337.7 L286.6,337.4 L291.8,336.8 L297.0,336.1 L302.2,335.2 L307.4,334.2 L312.6,333.0
		L317.7,331.5 L322.9,330.0 L328.1,328.2 L333.3,326.3 L338.5,324.2 L343.7,321.9 L348.9,319.4 L354.1,316.8
		L359.3,314.0 L364.5,311.0 L369.7,307.8 L374.9,304.5 L380.1,301.0 L385.3,297.3 L390.5,293.4 L395.7,289.4
		L400.9,285.2 L406.1,280.8 L411.3,276.2 L416.5,271.5 L421.7,266.5 L426.9,261.5 L432.1,256.2 L437.3,250.7
		L442.5,245.1 L447.7,239.3 L452.9,233.4 L458.1,227.2 L463.3,220.9 L468.5,214.4 L473.7,207.7 L478.9,200.9
		L484.1,193.8 L489.2,186.6 L494.4,179.3 L499.6,171.7 L504.8,164.0 L510.0,156.1 L515.2,148.0 L520.4,139.7
		L525.6,131.3 L530.8,122.7 L536.0,113.9 L541.2,105.0 L546.4,95.8 L551.6,86.5  '/></g>
	</g>
	<g id="gnuplot_plot_3" ><title>Fc+dc(x)</title>
<g fill="none" color="black" stroke="currentColor" stroke-width="1.00" stroke-linecap="butt" stroke-linejoin="miter">
	<g transform="translate(507.9,390.9)" stroke="none" fill="black" font-family="Arial" font-size="12.00"  text-anchor="end">
		<text><tspan font-family="Arial" >F</tspan><tspan font-family="Arial"  font-size="9.6" dy="3.60px">c+dc</tspan><tspan font-family="Arial"  font-size="12.0" dy="-3.60px">(x)</tspan></text>
	</g>
</g>
<g fill="none" color="black" stroke="currentColor" stroke-width="1.00" stroke-linecap="butt" stroke-linejoin="miter">
	<path stroke='rgb(  0, 158, 115)' stroke-dasharray='2.5,4.0'  d='M516.2,386.4 L558.4,386.4 M78.7,188.4 L83.9,195.9 L89.1,203.2 L94.3,210.3 L99.5,217.2 L104.7,223.9
		L109.9,230.4 L115.1,236.7 L120.3,242.8 L125.5,248.7 L130.7,254.5 L135.9,260.0 L141.1,265.3 L146.2,270.4
		L151.4,275.4 L156.6,280.1 L161.8,284.6 L167.0,289.0 L172.2,293.1 L177.4,297.1 L182.6,300.8 L187.8,304.3
		L193.0,307.6 L198.2,310.8 L203.4,313.7 L208.6,316.4 L213.8,318.9 L219.0,321.3 L224.2,323.4 L229.4,325.3
		L234.6,327.0 L239.8,328.4 L245.0,329.7 L250.2,330.8 L255.4,331.7 L260.6,332.3 L265.8,332.8 L271.0,333.0
		L276.2,333.1 L281.4,333.0 L286.6,332.6 L291.8,332.1 L297.0,331.4 L302.2,330.5 L307.4,329.4 L312.6,328.2
		L317.7,326.7 L322.9,325.1 L328.1,323.3 L333.3,321.3 L338.5,319.2 L343.7,316.9 L348.9,314.4 L354.1,311.7
		L359.3,308.9 L364.5,305.8 L369.7,302.6 L374.9,299.3 L380.1,295.7 L385.3,292.0 L390.5,288.1 L395.7,284.0
		L400.9,279.7 L406.1,275.3 L411.3,270.6 L416.5,265.8 L421.7,260.7 L426.9,255.5 L432.1,250.1 L437.3,244.5
		L442.5,238.6 L447.7,232.6 L452.9,226.4 L458.1,220.0 L463.3,213.4 L468.5,206.5 L473.7,199.5 L478.9,192.3
		L484.1,184.9 L489.2,177.2 L494.4,169.4 L499.6,161.3 L504.8,153.1 L510.0,144.7 L515.2,136.0 L520.4,127.2
		L525.6,118.1 L530.8,108.9 L536.0,99.5 L541.2,89.8 L546.4,80.0 L551.6,69.9  '/></g>
	</g>
	<g id="gnuplot_plot_4" ><title>Fc-dc(x)</title>
<g fill="none" color="black" stroke="currentColor" stroke-width="1.00" stroke-linecap="butt" stroke-linejoin="miter">
	<g transform="translate(507.9,408.9)" stroke="none" fill="black" font-family="Arial" font-size="12.00"  text-anchor="end">
		<text><tspan font-family="Arial" >F</tspan><tspan font-family="Arial"  font-size="9.6" dy="3.60px">c-dc</tspan><tspan font-family="Arial"  font-size="12.0" dy="-3.60px">(x)</tspan></text>
	</g>
</g>
<g fill="none" color="black" stroke="currentColor" stroke-width="1.00" stroke-linecap="butt" stroke-linejoin="miter">
	<path stroke='rgb(  0, 158, 115)' stroke-dasharray='1.0,2.0'  d='M516.2,404.4 L558.4,404.4 M78.7,240.7 L83.9,246.2 L89.1,251.5 L94.3,256.7 L99.5,261.7 L104.7,266.6
		L109.9,271.3 L115.1,275.9 L120.3,280.3 L125.5,284.6 L130.7,288.7 L135.9,292.6 L141.1,296.4 L146.2,300.1
		L151.4,303.6 L156.6,306.9 L161.8,310.1 L167.0,313.1 L172.2,316.0 L177.4,318.8 L182.6,321.3 L187.8,323.8
		L193.0,326.0 L198.2,328.2 L203.4,330.2 L208.6,332.0 L213.8,333.7 L219.0,335.2 L224.2,336.6 L229.4,337.9
		L234.6,339.0 L239.8,340.0 L245.0,340.8 L250.2,341.5 L255.4,342.0 L260.6,342.4 L265.8,342.7 L271.0,342.7
		L276.2,342.7 L281.4,342.5 L286.6,342.1 L291.8,341.6 L297.0,340.9 L302.2,340.0 L307.4,339.0 L312.6,337.8
		L317.7,336.4 L322.9,334.8 L328.1,333.1 L333.3,331.2 L338.5,329.2 L343.7,326.9 L348.9,324.5 L354.1,321.9
		L359.3,319.1 L364.5,316.1 L369.7,313.0 L374.9,309.7 L380.1,306.2 L385.3,302.6 L390.5,298.8 L395.7,294.8
		L400.9,290.6 L406.1,286.3 L411.3,281.8 L416.5,277.2 L421.7,272.4 L426.9,267.4 L432.1,262.3 L437.3,257.0
		L442.5,251.6 L447.7,246.0 L452.9,240.3 L458.1,234.4 L463.3,228.4 L468.5,222.2 L473.7,215.9 L478.9,209.4
		L484.1,202.8 L489.2,196.1 L494.4,189.1 L499.6,182.1 L504.8,174.9 L510.0,167.5 L515.2,160.0 L520.4,152.3
		L525.6,144.5 L530.8,136.5 L536.0,128.4 L541.2,120.1 L546.4,111.7 L551.6,103.1  '/></g>
	</g>
<g fill="none" color="#FFFFFF" stroke="rgb(  0, 158, 115)" stroke-width="2.00" stroke-linecap="butt" stroke-linejoin="miter">
</g>
<g fill="none" color="black" stroke="currentColor" stroke-width="2.00" stroke-linecap="butt" stroke-linejoin="miter">
</g>
<g fill="none" color="black" stroke="black" stroke-width="1.00" stroke-linecap="butt" stroke-linejoin="miter">
</g>
<g fill="none" color="black" stroke="currentColor" stroke-width="1.00" stroke-linecap="butt" stroke-linejoin="miter">
	<path stroke='black'  d='M55.3,54.1 L55.3,422.4 L575.0,422.4 L575.0,54.1 L55.3,54.1 Z  '/></g>
<g fill="none" color="black" stroke="currentColor" stroke-width="1.00" stroke-linecap="butt" stroke-linejoin="miter">
</g>
</g>
</svg>

